<?xml version="1.0" encoding="utf-8"?>
<!-- Generator: Adobe Illustrator 16.0.0, SVG Export Plug-In . SVG Version: 6.00 Build 0)  -->
<!DOCTYPE svg PUBLIC "-//W3C//DTD SVG 1.1//EN" "http://www.w3.org/Graphics/SVG/1.1/DTD/svg11.dtd">
<svg version="1.1" id="Layer_1" xmlns="http://www.w3.org/2000/svg" xmlns:xlink="http://www.w3.org/1999/xlink" x="0px" y="0px"
	 width="300px" height="300px" viewBox="0 0 300 300" enable-background="new 0 0 300 300" xml:space="preserve">
<g>
	<path fill="#060507" d="M293.138,83.185v86.658c0,0-18.551,3.654-22.371,4.135c-3.808,0.479-15.775,4.344-24.45-3.995
		c-13.379-12.819-60.907-60.087-60.907-60.087s-8.195-8.042-21.354-1.092c-12.078,6.367-29.98,15.697-37.464,19.33
		c-14.138,7.525-25.853-4.414-25.853-13.507c0-7.056,4.402-11.843,10.694-15.364c17.054-10.339,52.995-30.514,67.965-38.468
		c9.101-4.84,15.656-5.254,28.151,5.27C222.932,79.005,236.626,90.8,236.626,90.8s4.467,3.727,11.59,2.225
		C265.706,89.328,293.138,83.185,293.138,83.185z M103.958,230.017c2.303-5.913,1.533-12.526-2.882-17.063
		c-3.965-4.061-9.754-5.129-15.274-3.865c1.544-5.472,0.693-11.303-3.295-15.412c-3.977-4.052-9.754-5.143-15.274-3.865
		c1.532-5.468,0.681-11.295-3.307-15.394c-6.248-6.407-17.05-6.134-24.148,0.634c-7.06,6.774-11.583,19.049-5.282,26.273
		c6.29,7.188,13.519,2.814,19.029,1.557c-1.533,5.468-6.126,10.555-0.47,17.709c5.651,7.16,13.519,2.815,19.033,1.571
		c-1.537,5.446-5.929,11.046-0.49,17.678c5.488,6.656,14.478,3.108,20.414,1.265c-2.29,5.893-7.195,12.24-0.893,19.357
		c6.288,7.168,20.832,3.852,27.931-2.925c7.083-6.773,7.764-17.51,1.534-23.938C116.283,229.189,109.87,228.164,103.958,230.017z
		 M233.538,184.934c-51.336-51.338-27.189-27.182-54.816-54.868c0,0-8.306-8.266-19.247-3.464
		c-7.685,3.366-17.572,7.954-25.016,11.456c-8.175,4.289-14.06,5.616-16.827,5.597c-15.808-0.104-28.634-12.81-28.634-28.603
		c0-10.246,5.44-19.166,13.551-24.23c11.409-7.893,37.667-21.86,37.667-21.86s-8-10.135-25.522-10.135
		c-17.52,0-54.12,23.976-54.12,23.976s-10.383,6.651-25.184,0.661L6.863,73.53v99.161c0,0,8.146,2.358,15.465,5.347
		c1.653-4.713,4.321-9.066,8.021-12.662c12.143-11.566,32.271-11.686,43.318-0.31c3.33,3.458,5.651,7.582,6.836,12.144
		c4.452,1.373,8.483,3.808,11.726,7.147c3.337,3.435,5.651,7.581,6.846,12.119c4.445,1.375,8.474,3.818,11.723,7.16
		c3.663,3.775,6.102,8.334,7.24,13.276c4.648,1.355,8.85,3.873,12.233,7.332c6.638,6.82,8.994,16.071,7.568,24.996
		c0.01,0,0.033,0,0.044,0.022c0.111,0.143,4.112,4.606,6.612,7.123c4.895,4.902,12.886,4.902,17.796,0
		c4.876-4.895,4.897-12.873,0-17.794c-0.178-0.176-17.661-18.465-16.254-19.881c1.399-1.409,23.673,21.77,24.085,22.193
		c4.89,4.889,12.877,4.889,17.789,0c4.896-4.898,4.886-12.874,0-17.786c-0.242-0.229-1.244-1.188-1.614-1.572
		c0,0-22.087-19.672-20.405-21.354c1.7-1.69,29.134,23.908,29.178,23.908c4.932,4.44,12.526,4.407,17.27-0.338
		c4.617-4.616,4.715-11.916,0.623-16.835c-0.088-0.263-20.905-22.019-19.283-23.656c1.65-1.659,22.25,19.554,22.294,19.598
		c4.877,4.89,12.878,4.89,17.788,0c4.887-4.888,4.887-12.876,0-17.808C233.692,185.02,233.604,184.978,233.538,184.934z"/>
</g>
</svg>
