<?xml version="1.0" encoding="utf-8"?>
<!-- Generator: Adobe Illustrator 16.0.0, SVG Export Plug-In . SVG Version: 6.00 Build 0)  -->
<!DOCTYPE svg PUBLIC "-//W3C//DTD SVG 1.1//EN" "http://www.w3.org/Graphics/SVG/1.1/DTD/svg11.dtd">
<svg version="1.1" id="Layer_1" xmlns="http://www.w3.org/2000/svg" xmlns:xlink="http://www.w3.org/1999/xlink" x="0px" y="0px"
	 width="300px" height="300px" viewBox="0 0 300 300" enable-background="new 0 0 300 300" xml:space="preserve">
<g>
	<g>
		<path fill="#010101" d="M149.237,2C90.305,2,42.362,49.944,42.362,108.875c0,73.137,95.646,180.503,99.715,185.039
			c3.828,4.26,10.507,4.25,14.32,0c4.075-4.535,99.72-111.901,99.72-185.039C256.112,49.944,208.168,2,149.237,2z M149.237,162.648
			c-29.649,0-53.769-24.124-53.769-53.773s24.12-53.773,53.769-53.773c29.647,0,53.772,24.125,53.772,53.773
			S178.885,162.648,149.237,162.648z"/>
	</g>
</g>
</svg>
