<?xml version="1.0" encoding="utf-8"?>
<!-- Generator: Adobe Illustrator 16.0.0, SVG Export Plug-In . SVG Version: 6.00 Build 0)  -->
<!DOCTYPE svg PUBLIC "-//W3C//DTD SVG 1.1//EN" "http://www.w3.org/Graphics/SVG/1.1/DTD/svg11.dtd">
<svg version="1.1" id="Layer_1" xmlns="http://www.w3.org/2000/svg" xmlns:xlink="http://www.w3.org/1999/xlink" x="0px" y="0px"
	 width="300px" height="300px" viewBox="0 0 300 300" enable-background="new 0 0 300 300" xml:space="preserve">
<path fill="#010101" d="M290.185,75.517c-2.133-0.935-4.586-0.636-6.425,0.737c-1.168,0.641-13.739,6.685-73.239,6.685
	c-21.234,0-41.365,6.177-59.907,18.373c-18.548-12.195-38.681-18.373-59.909-18.373c-57.719,0-72.212-5.668-74.378-6.704
	c-1.757-1.841-4.13-2.124-6.548-1.205c-2.5,0.946-3.774,3.708-3.774,6.381c0,1.456,0.115,36.061,10.025,71.276
	c13.663,48.56,39.485,74.226,74.675,74.226c23.619,0,43.748-5.181,59.909-15.414c16.156,10.233,36.284,15.414,59.907,15.414
	c34.719,0,60.188-25.674,73.649-74.247c9.757-35.208,9.869-69.799,9.869-71.255C294.039,78.855,292.527,76.542,290.185,75.517z
	 M131.422,172.314c-1.089,1.642-2.874,2.697-4.838,2.856c-0.574,0.045-14.366,1.149-41.891,1.149
	c-31.901,0-46.868-45.523-47.49-47.46c-0.626-1.958-0.282-4.097,0.93-5.756c1.209-1.66,3.142-2.643,5.197-2.643h41.363
	c31.868,0,46.854,44.396,47.478,46.286C132.788,168.618,132.513,170.67,131.422,172.314z M262.841,128.86
	c-0.622,1.937-15.59,47.46-47.49,47.46c-27.521,0-41.316-1.104-41.889-1.149c-1.966-0.159-3.751-1.215-4.837-2.856
	c-1.092-1.644-1.368-3.696-0.752-5.569c0.624-1.889,15.615-46.284,47.478-46.284h41.363c2.054,0,3.985,0.983,5.196,2.643
	C263.123,124.764,263.468,126.902,262.841,128.86z"/>
</svg>
