<?xml version="1.0" encoding="utf-8"?>
<!-- Generator: Adobe Illustrator 16.0.0, SVG Export Plug-In . SVG Version: 6.00 Build 0)  -->
<!DOCTYPE svg PUBLIC "-//W3C//DTD SVG 1.1//EN" "http://www.w3.org/Graphics/SVG/1.1/DTD/svg11.dtd">
<svg version="1.1" xmlns="http://www.w3.org/2000/svg" xmlns:xlink="http://www.w3.org/1999/xlink" x="0px" y="0px" width="300px"
	 height="300px" viewBox="0 0 300 300" enable-background="new 0 0 300 300" xml:space="preserve">
<g id="Layer_1">
	<g>
		<path fill="none" stroke="#FFFFFF" stroke-width="2" stroke-miterlimit="10" d="M295.495,246.892
			c0,26.498-21.479,47.978-47.974,47.978H52.257c-26.494,0-47.974-21.479-47.974-47.978V51.621
			c0-26.489,21.479-47.969,47.974-47.969h195.265c26.494,0,47.974,21.48,47.974,47.969V246.892z"/>
	</g>
	<g>
		<g>
			<path fill="#FFFFFF" d="M249.19,49.968c-5.407-5.401-11.89-8.111-19.441-8.111H70.042c-7.558,0-14.034,2.709-19.441,8.111
				c-5.407,5.413-8.111,11.89-8.111,19.441v159.707c0,7.54,2.704,14.034,8.111,19.436c5.407,5.413,11.884,8.111,19.441,8.111
				h159.708c7.546,0,14.034-2.698,19.429-8.111c5.414-5.401,8.111-11.896,8.111-19.436V69.41
				C257.289,61.858,254.592,55.381,249.19,49.968z M119.612,119.271c8.439-8.166,18.585-12.242,30.426-12.242
				c11.926,0,22.115,4.077,30.554,12.242c8.445,8.153,12.655,18.008,12.655,29.576c0,11.555-4.21,21.41-12.655,29.575
				c-8.438,8.153-18.621,12.236-30.554,12.236c-11.841,0-21.981-4.083-30.426-12.236c-8.433-8.165-12.655-18.02-12.655-29.575
				C106.957,137.279,111.179,127.425,119.612,119.271z M232.969,223.381c0,2.424-0.838,4.447-2.521,6.076
				c-1.677,1.634-3.688,2.454-6.021,2.454H74.933c-2.424,0-4.454-0.82-6.082-2.454c-1.634-1.629-2.442-3.652-2.442-6.076v-90.622
				h19.715c-1.865,5.869-2.801,11.981-2.801,18.324c0,17.904,6.525,33.159,19.582,45.797c13.05,12.631,28.761,18.943,47.134,18.943
				c12.114,0,23.3-2.886,33.562-8.67c10.255-5.778,18.366-13.634,24.332-23.561c5.973-9.934,8.949-20.772,8.949-32.51
				c0-6.343-0.93-12.443-2.795-18.324h18.883V223.381L232.969,223.381L232.969,223.381z M232.969,98.493
				c0,2.704-0.936,4.988-2.807,6.853c-1.859,1.865-4.144,2.795-6.854,2.795h-24.326c-2.71,0-4.994-0.93-6.854-2.795
				c-1.858-1.865-2.795-4.149-2.795-6.853V75.424c0-2.612,0.937-4.873,2.795-6.786c1.865-1.908,4.144-2.874,6.854-2.874h24.326
				c2.71,0,4.994,0.966,6.854,2.874c1.871,1.914,2.807,4.174,2.807,6.786V98.493z"/>
		</g>
	</g>
</g>
<g id="Layer_2">
</g>
</svg>
