<?xml version="1.0" encoding="utf-8"?>
<!-- Generator: Adobe Illustrator 16.0.0, SVG Export Plug-In . SVG Version: 6.00 Build 0)  -->
<!DOCTYPE svg PUBLIC "-//W3C//DTD SVG 1.1//EN" "http://www.w3.org/Graphics/SVG/1.1/DTD/svg11.dtd">
<svg version="1.1" id="Layer_1" xmlns="http://www.w3.org/2000/svg" xmlns:xlink="http://www.w3.org/1999/xlink" x="0px" y="0px"
	 width="300px" height="85.552px" viewBox="0 0 300 85.552" enable-background="new 0 0 300 85.552" xml:space="preserve">
<g>
	<path fill="#010101" d="M23.537,15.359c-0.087-0.042-0.194-0.085-0.323-0.128c0.042-0.042,0.021-0.107-0.064-0.194h-0.322
		c-0.044,0.086-0.044,0.151,0,0.194c-0.044,0.043-0.151,0.108-0.323,0.193c-0.301,0.431-0.474,0.667-0.516,0.709
		c-0.043-0.042-0.108-0.085-0.194-0.128c-0.042,0.086-0.064,0.193-0.064,0.322l0.194,0.194c0.085-0.086,0.364-0.129,0.838-0.129
		c0,0.043,0.065,0.108,0.194,0.194c-0.259,0-0.516,0.086-0.774,0.257l0.194,0.065c-0.044,0.172-0.108,0.452-0.194,0.838
		c-0.043,0.043-0.129,0.107-0.257,0.193c-0.56-0.516-0.839-1.247-0.839-2.193l-0.064-0.064c0.042-0.301,0.064-0.687,0.064-1.162
		c-0.301-0.516-0.452-0.859-0.452-1.032c0-0.086,0.021-0.171,0.064-0.258h0.323c0.386,0.258,0.945,0.646,1.676,1.162
		c-0.171,0.128-0.409,0.301-0.709,0.516c0-0.128-0.064-0.279-0.194-0.452l-0.193,0.065v0.323c0.086,0.087,0.236,0.129,0.451,0.129
		c0.172,0,0.344-0.021,0.517-0.065C23.042,14.78,23.364,14.931,23.537,15.359z M22.052,15.747l-0.064-0.323h-0.129l0.065,0.323
		H22.052z M26.696,20.326c-0.344-0.73-0.989-1.719-1.934-2.967V16.65C25.32,17.424,25.965,18.649,26.696,20.326z M21.924,17.102
		v-0.323H21.73v0.323H21.924z M27.599,23.938c-0.859-1.719-1.548-2.58-2.063-2.58c0.215-0.258,0.323-0.43,0.323-0.516
		c0-0.215-0.172-0.537-0.517-0.967c-0.344-0.429-0.623-0.645-0.838-0.645c-0.086,0-0.258,0.107-0.516,0.322
		c0.042,0.172,0.171,0.302,0.387,0.387c-0.344,0.043-0.667,0.128-0.967,0.258c0.129,0.129,0.279,0.237,0.452,0.322
		c-0.087-0.085-0.194-0.129-0.322-0.129c-0.216,0-0.442,0.129-0.678,0.387c-0.236,0.259-0.354,0.495-0.354,0.709
		c0,0.173,0.085,0.259,0.258,0.259c0.559,0,1.118,0.128,1.677,0.386c-0.431,0-0.968,0.152-1.612,0.452
		c0.042,0.302,0,0.56-0.13,0.774l0.13,0.258c-0.474-0.215-0.709-1.269-0.709-3.161c-0.129-0.388-0.301-0.968-0.517-1.741
		c0.517,0,0.86-0.065,1.032-0.194c0.344-0.343,0.58-0.537,0.709-0.581c-0.043,0.216,0.021,0.366,0.194,0.451
		c-0.302,0-0.774,0.345-1.419,1.033l0.064,0.322v-0.258l0.258,0.258c0.473-0.172,1.203-0.473,2.193-0.903
		c0.387,0.387,0.924,1.119,1.612,2.193l-0.194,0.128C27.126,22.24,27.642,23.165,27.599,23.938z M25.858,28.969
		c2.537,3.999,4.213,8.923,5.031,14.771c0.517,3.698,0.752,8.944,0.709,15.738h0.065c0.086-4.472,0.086-7.568,0-9.288
		c0.258,1.463,0.365,4.645,0.323,9.545l0.129-5.61l0.129-0.13l-0.129-5.869l0.387,2.774c0.171-1.376,0.258-2.774,0.258-4.193
		c0-8.386-2.837-16.383-8.514-23.994l0.387-0.258l2.645,3.999l-0.194-1.161l0.839,1.032l0.064-0.128l-2-4.128
		c2.106,3.354,4.084,8.171,5.934,14.447v-0.709l1.419,6.578l0.646,0.582c0.429,2.191,0.945,5.009,1.547,8.449
		c0.344,1.936,0.517,4.106,0.517,6.514c0,5.032-1.055,9.461-3.161,13.287c-2.58,4.645-6.192,6.967-10.836,6.967
		c-6.449,0-11.696-4.58-15.737-13.739c-1.376-3.138-2.064-5.568-2.064-7.288c0-2.063,0.967-3.096,2.902-3.096
		c3.311,0,8.75,2.603,16.318,7.804c3.396,0,5.096-4.6,5.096-13.803c0-2.795-0.216-6.041-0.645-9.74
		C27.406,33.849,26.718,30.733,25.858,28.969z M28.89,27.744c-0.087-0.129-0.237-0.259-0.451-0.387l0.322,0.646
		C28.761,27.917,28.802,27.831,28.89,27.744z M30.567,32.71c0.128-0.602-0.301-1.612-1.291-3.031
		C29.319,29.765,29.75,30.775,30.567,32.71z M32.115,37.032l-0.064-0.517h-0.129l0.064,0.517H32.115z M29.728,43.482v-0.388H29.6
		v0.388H29.728z M29.728,45.224V43.74H29.6v1.484H29.728z M29.728,46.385v-1.032H29.6v1.032H29.728z M29.664,48.125v-0.387h-0.129
		v0.387H29.664z M29.664,50.512v-2.321h-0.129v2.321H29.664z M29.535,52.253V51.48h-0.129v0.773H29.535z M15.603,59.413
		c-0.129-0.042-0.302-0.15-0.517-0.321h0.13c-0.13-0.216-0.367-0.517-0.71-0.902c-0.172-0.131-0.43-0.345-0.774-0.646l0.258-0.257
		c0.128,0.257,0.278,0.451,0.452,0.58l0.064-0.323c-0.043-0.171-0.28-0.387-0.709-0.645c0.129,0.087,0.194,0.172,0.194,0.258
		c0,0.087-0.151,0.13-0.451,0.13l-0.194-0.13c0.086-0.258,0.172-0.364,0.258-0.321l-0.063-0.13l0.063-0.129
		c-0.345-0.43-0.709-0.688-1.097-0.775l-0.064,0.13l-0.064-0.258c-0.474-0.474-1.248-0.709-2.322-0.709
		c-0.087,0-0.184,0.031-0.291,0.097c-0.108,0.063-0.204,0.097-0.29,0.097c0.128,0.129,0.193,0.236,0.193,0.322
		c0,0.129-0.086,0.237-0.257,0.321c0.3,0.346,0.452,0.624,0.452,0.84c0,0.086-0.022,0.151-0.065,0.194
		c0.558,0.257,0.795,0.559,0.71,0.902l0.258-0.065c0.214,0.216,0.494,0.538,0.838,0.968l0.129-0.129
		c0.042,0.087,0.042,0.236,0,0.451h0.322c-0.043-0.086-0.086-0.192-0.129-0.322l0.129-0.129c0.129,0.129,0.365,0.259,0.709,0.388
		l0.065,0.257c-0.258,0.129-0.431,0.281-0.517,0.452c0.215,0.088,0.517,0.172,0.903,0.258l-0.064-0.322
		c0.086,0.215,0.214,0.494,0.388,0.839l-0.259-0.065c0.085,0.043,0.193,0.129,0.322,0.259l0.064-0.193
		c0.042,0,0.139,0.075,0.291,0.225c0.15,0.151,0.269,0.227,0.355,0.227c0.085-0.043,0.129-0.13,0.129-0.258
		c-0.517,0-0.839-0.193-0.968-0.581c0.258,0.086,0.452-0.106,0.581-0.581c0.214,0.13,0.472,0.366,0.773,0.71
		c0.086-0.129,0.107-0.278,0.065-0.451c0.258,0.216,0.429,0.322,0.516,0.322C15.538,59.952,15.603,59.757,15.603,59.413z
		 M29.986,55.995v-0.387h-0.129v0.387H29.986z M29.922,56.125c-0.087,1.247-0.322,3.096-0.709,5.547
		C29.771,59.607,30.007,57.758,29.922,56.125z M28.89,57.737v-0.194h-0.129v0.194H28.89z M28.826,57.8h-0.129l-0.129,0.517h0.193
		L28.826,57.8z M13.797,59.155c-0.087,0-0.152,0.022-0.194,0.065c-0.043-0.086-0.043-0.193,0-0.322L13.797,59.155z M29.341,59.027
		h-0.193L29.084,59.8h0.128L29.341,59.027z M23.988,63.669c-0.946-0.644-1.72-0.966-2.322-0.966c0.214,0-0.151-0.13-1.097-0.389
		c0.042,0.13,0,0.28-0.129,0.452l0.451,0.129c0.086,0.13,0.086,0.259,0,0.388l-0.063-0.195l-0.194,0.195
		c-0.086,0-0.183-0.182-0.29-0.548c-0.108-0.366-0.27-0.549-0.484-0.549c-0.172,0-0.345,0.044-0.516,0.128
		c-0.129,0.044-0.216,0.044-0.258,0c-0.043-0.084-0.107-0.3-0.193-0.644c-0.044,0.043-0.087,0.063-0.129,0.063
		c-0.129,0-0.322-0.139-0.581-0.419c-0.257-0.278-0.43-0.419-0.516-0.419c0.043,0,0,0.063-0.129,0.193
		c-0.258-0.258-0.688-0.58-1.29-0.968l0.193-0.258c-0.559-0.258-0.773-0.387-0.645-0.387c-0.128,0-0.193,0.044-0.193,0.129
		c0,0.128,0.129,0.366,0.386,0.709c0.13,0.087,0.624,0.507,1.485,1.259c0.859,0.752,1.331,1.129,1.418,1.129l0.128,0.192
		c0.042,0.13,0.194,0.173,0.452,0.13l0.129,0.321c-0.043-0.171,0.021-0.429,0.193-0.773h0.323c0,0.13,0.042,0.259,0.129,0.388
		l-0.129,0.127c-0.172-0.083-0.323-0.127-0.452-0.127c0.085,0.127,0.214,0.235,0.387,0.322l-0.129,0.322
		c-0.216-0.086-0.538-0.172-0.967-0.259c-0.129-0.215-0.366-0.429-0.71-0.644c-0.043,0.172-0.108,0.279-0.193,0.322l0.064-0.259
		l-0.192-0.193c-0.044,0.302-0.151,0.474-0.323,0.515v0.195c0.172,0,0.409,0.044,0.71,0.129l-0.129,0.129
		c0.816,0.172,1.957,0.58,3.418,1.226C22.16,64.422,22.956,64.058,23.988,63.669z M29.148,59.865h-0.129l-0.065,0.774h0.13
		L29.148,59.865z M14.119,59.865c0,0.043-0.022,0.108-0.063,0.194l0.128,0.063c0.086-0.043,0.151-0.063,0.194-0.063
		C14.334,59.929,14.248,59.865,14.119,59.865z M15.28,60.575h-0.645c0.129,0.172,0.3,0.258,0.516,0.258L15.28,60.575z
		 M16.441,61.026c-0.171-0.172-0.408-0.258-0.709-0.258c-0.302-0.042-0.452,0.086-0.452,0.387c0-0.129,0.042,0,0.129,0.387
		L16.441,61.026z M6.959,61.606c-0.129-0.129-0.258-0.3-0.387-0.516c-0.043,0.087-0.043,0.259,0,0.516H6.959z M6.379,61.477v-0.322
		H6.25v0.322H6.379z M17.99,62.315c-0.731-0.601-1.119-0.944-1.161-1.031c-0.043,0-0.087,0.022-0.129,0.065
		c-0.043,0.043-0.086,0.063-0.128,0.063c-0.044,0-0.076-0.032-0.097-0.097c-0.022-0.064-0.055-0.097-0.097-0.097l-0.257,0.193
		c0.214,0.088,0.452,0.28,0.709,0.58h-1.161c0.343,0.088,0.815,0.259,1.418,0.518c0.129-0.13,0.236-0.195,0.322-0.195
		c0.085,0,0.15,0.023,0.193,0.065l-0.386,0.258h0.258c0.17,0,0.257-0.021,0.257-0.064v-0.129L17.99,62.315z M34.824,61.542v-0.192
		h-0.129v0.192H34.824z M7.863,61.477c-0.172,0.043-0.43,0.086-0.774,0.129l0.58,0.129L7.863,61.477z M16.571,61.864h-0.194
		c-0.129-0.129-0.215-0.149-0.257-0.063C16.376,61.843,16.527,61.864,16.571,61.864z M34.501,64.058l0.193-0.517
		c0-0.171,0.021-0.429,0.064-0.774c0.3,0.044,0.452,0.194,0.452,0.451C35.211,63.347,34.974,63.628,34.501,64.058z M8.895,62.767
		c-0.216,0.087-0.495,0.129-0.839,0.129c0.085,0,0.182,0.033,0.291,0.097c0.106,0.065,0.182,0.096,0.226,0.096
		C8.787,63.088,8.895,62.983,8.895,62.767z M20.698,63.413c-0.129,0-0.345,0.021-0.645,0.064c0.086,0.087,0.172,0.129,0.258,0.129
		C20.44,63.606,20.569,63.542,20.698,63.413z M24.633,63.669c0,0.088-0.043,0.13-0.129,0.13c-0.086,0-0.129-0.064-0.129-0.193
		l-0.192,0.258c0.084,0,0.149,0.022,0.192,0.064C24.546,63.928,24.633,63.842,24.633,63.669z M9.668,63.993
		c-0.086,0-0.257-0.042-0.516-0.129c-0.258,0-0.387,0.194-0.387,0.58h0.387C9.239,64.402,9.411,64.25,9.668,63.993z M27.02,64.509
		h-0.129l-0.129,0.322h0.129L27.02,64.509z M26.826,64.96l-0.13-0.064l-0.064,0.258l0.129,0.064L26.826,64.96z M9.024,65.605
		l-0.064-0.258L8.83,65.412l0.065,0.193H9.024z M9.991,65.669v-0.258H9.668c-0.086,0.085-0.215,0.172-0.387,0.258
		c0.043,0.086,0.065,0.172,0.065,0.258c0.086,0,0.171-0.063,0.258-0.192c0.042,0.042,0.064,0.106,0.064,0.192
		c-0.043,0.087-0.129,0.129-0.257,0.129c0.085,0.043,0.15,0.087,0.193,0.131C9.646,66.056,9.776,65.885,9.991,65.669z
		 M34.501,66.187c-0.129,0.041-0.322,0.085-0.581,0.128v0.452c0.085,0,0.151,0.021,0.194,0.063
		C34.2,66.702,34.33,66.486,34.501,66.187z M33.018,69.605l-0.065-0.065l-0.322,0.26l0.128,0.127L33.018,69.605z M27.536,75.731
		l-0.064-0.386c-0.173,0.085-0.302,0.214-0.388,0.386H27.536z M19.602,76.377l-0.129-0.258l-0.128,0.063l0.128,0.194H19.602z
		 M20.698,76.958c-0.087-0.086-0.215-0.108-0.387-0.064c0.086-0.087,0.15-0.193,0.194-0.322c0,0.042,0.042,0.086,0.129,0.129
		c0.042,0,0.064-0.043,0.064-0.129V76.958z"/>
	<path fill="#010101" d="M67.009,69.799l-1.548,1.224l0.452,0.645l-0.258,0.581c0.258,0.517,0.387,1.117,0.387,1.807
		c0,0.516-0.086,1.074-0.258,1.676c-1.377,0.86-3.225,1.291-5.547,1.291c-0.474,0-1.193-0.022-2.161-0.064
		c-0.968-0.043-1.688-0.064-2.16-0.064l-0.194,0.581c-0.301,0.084-0.623,0.128-0.967,0.128c-1.119,0-1.978-0.43-2.58-1.291
		c-3.096-0.988-5.311-2.45-6.643-4.385c-1.334-1.936-2.023-4.558-2.065-7.868l0.968-1.032l4.837,1.032l0.322-0.646
		c-0.301-2.278-0.752-7.59-1.354-15.932c-0.474-6.879-1.227-12.146-2.258-15.804c-0.216-0.858-1.806-2.6-4.774-5.224
		c-2.752-2.451-4.127-4.213-4.127-5.289c0-0.859,0.494-1.654,1.483-2.386l0.322-1.677l-0.581-1.226l0.517-0.065l0.387-0.838
		l-0.323-0.645h2.646l1.096,0.645l0.71-0.645c0.988,0,2.428-0.183,4.32-0.549c1.892-0.365,3.333-0.548,4.322-0.548
		c1.031,0,1.977,0.129,2.837,0.387l2.902,3.677c-0.128,1.032,0.107,2.151,0.71,3.354c-0.732,1.463-1.269,2.495-1.613,3.096
		c-0.688,1.205-1.397,2.129-2.128,2.773c-2.494,8.559-3.74,14.813-3.74,18.77c0,2.967,0.451,5.763,1.354,8.386l1.16,0.966
		l0.646-2.128c0.086,1.162,0.388,2.108,0.904,2.838l0.773-0.903l0.258,2.903l-0.516,0.517l0.903,0.581
		c0.946,2.493,1.633,4.041,2.064,4.642c0.773,1.077,1.999,1.614,3.676,1.614c0.602,0,1.312-0.065,2.129-0.193
		C64.471,67.089,65.374,68.851,67.009,69.799z M55.334,18.069v-0.387c-0.474-0.214-1.032-0.322-1.677-0.322
		c-0.646,0-1.354,0.086-2.128,0.258c0.214,0,0.516-0.021,0.903-0.064c0.387-0.042,0.688-0.065,0.903-0.065
		c0.085,0,0.226,0.065,0.418,0.194c0.194,0.13,0.344,0.193,0.452,0.193c0.106,0,0.204,0.022,0.291,0.064l-0.581,0.193
		c0.258,0.087,0.581,0.216,0.968,0.387C54.969,18.306,55.118,18.155,55.334,18.069z M57.592,20.261
		c-0.087-0.171-0.237-0.407-0.451-0.709v0.323c0.128,0.043,0.193,0.151,0.193,0.322c0,0.086-0.022,0.216-0.065,0.388
		C57.398,20.37,57.505,20.261,57.592,20.261z M40.629,21.81c-0.172-0.085-0.258-0.258-0.258-0.516
		c-0.129-0.042-0.28-0.107-0.452-0.193c0.042-0.172-0.022-0.323-0.193-0.452l-0.259,0.064c0.042-0.085,0.064-0.17,0.064-0.257
		c-0.43-0.215-0.688-0.323-0.773-0.323c-0.216,0-0.28,0.193-0.194,0.58c0.129,0.56,0.322,1.291,0.58,2.193
		c0.13-0.517,0.301-0.752,0.517-0.709c-0.129,0.344-0.257,0.602-0.387,0.773c0.171-0.085,0.408-0.15,0.709-0.193
		c-0.043-0.128-0.064-0.344-0.064-0.646c0.085,0.044,0.15,0.065,0.193,0.065c0.085,0,0.15-0.021,0.193-0.065
		C40.521,21.961,40.629,21.853,40.629,21.81z M52.045,20.777c0-0.085-0.064-0.192-0.193-0.322c-0.087,0-0.15,0.021-0.194,0.064
		c0.043,0.087,0.107,0.193,0.194,0.323C51.894,20.842,51.958,20.821,52.045,20.777z M40.371,22.326h-0.324
		c0,0.216,0.043,0.409,0.13,0.581C40.177,22.777,40.242,22.583,40.371,22.326z M55.979,23.422c-0.086,0-0.151,0.043-0.193,0.128
		c-0.216-0.344-0.41-0.516-0.581-0.516c-0.301,0-0.452,0.194-0.452,0.582c0,0.086,0.064,0.183,0.193,0.29
		c0.129,0.107,0.193,0.205,0.193,0.29c0,0.56-0.257,0.839-0.773,0.839c-0.603,0-0.904-0.15-0.904-0.452
		c0-0.214,0.15-0.494,0.452-0.838C53.57,23.96,53.4,24.218,53.4,24.52c0,0.602,0.408,0.902,1.225,0.902
		c0.258,0,0.57-0.214,0.936-0.645c0.365-0.429,0.548-0.774,0.548-1.032L55.979,23.422z M54.689,23.229
		c-0.215,0.172-0.451,0.322-0.709,0.451h0.517L54.689,23.229z M45.982,26.389v-0.645c0,0.086-0.151-0.129-0.451-0.645
		c-0.044-0.215-0.152-0.517-0.323-0.904l-0.129,0.194c-0.172-0.042-0.41-0.128-0.709-0.258l-0.193,0.258
		c-0.044,0-0.065-0.021-0.065-0.064h-0.129l-0.322,0.452v0.258c0.042,0.043,0.129,0.257,0.258,0.645
		c0.042-0.043,0.086-0.065,0.129-0.065c0.214,0,0.494,0.301,0.838,0.903c0.085-0.344,0.258-0.516,0.516-0.516
		S45.853,26.13,45.982,26.389z M53.012,25.744c-0.086-0.129-0.193-0.193-0.322-0.193c-0.087,0-0.216,0.043-0.387,0.129
		c0.215,0.215,0.322,0.409,0.322,0.58c0-0.13,0.021-0.214,0.065-0.258c0.042,0.043,0.106,0.128,0.194,0.258L53.012,25.744z
		 M48.433,26.13c-0.128,1.12-0.192,2.43-0.192,3.936c0,1.935,0.106,4.215,0.322,6.837c0.215-1.031,0.322-2.172,0.322-3.419
		c0-0.815-0.076-2.041-0.225-3.677C48.507,28.175,48.433,26.949,48.433,26.13z M46.047,27.163v-0.516
		c-0.087,0.086-0.237,0.216-0.452,0.387L46.047,27.163z M52.948,28.066v-0.387c-0.172-0.086-0.409-0.258-0.708-0.517v0.322
		C52.367,27.702,52.603,27.894,52.948,28.066z M52.625,29.549c-0.128,0.216-0.333,0.365-0.612,0.452
		c-0.281,0.086-0.463,0.171-0.549,0.258c0.343,0.129,0.517,0.345,0.517,0.646c0,0.13-0.065,0.301-0.194,0.515
		c0.128,0.044,0.322,0.088,0.58,0.13c0.301-0.344,0.452-0.73,0.452-1.161l-0.064-0.322C52.668,29.894,52.625,29.722,52.625,29.549z
		 M49.142,40.773c0.171-0.646,0.215-1.548,0.129-2.709l-0.193-2.645c-0.129,1.247-0.194,2.301-0.194,3.16
		C48.884,39.569,48.97,40.3,49.142,40.773z M49.723,45.031c0-0.86-0.087-1.655-0.258-2.387v0.838
		C49.507,43.655,49.594,44.17,49.723,45.031z M50.303,48.965l-0.064-2.387H50.11l0.064,2.387H50.303z M49.465,47.739v-0.58h-0.129
		v0.58H49.465z M50.626,53.48c-0.474-0.517-0.861-2.408-1.161-5.677c0,1.893,0.344,4.43,1.032,7.611
		c0.73,3.612,1.161,6.148,1.29,7.611c-0.043-0.559,0.106-0.989,0.452-1.291c0,0.56,0.128,1.378,0.386,2.451
		c0.086-0.773,0.13-1.375,0.13-1.806c0-0.559-0.108-1.118-0.323-1.678l-0.903-2.256C51.228,57.671,50.926,56.017,50.626,53.48z
		 M51.722,49.158h-0.128v-0.451h0.128V49.158z M53.4,52.448c-0.388-0.171-0.581-0.881-0.581-2.128c0-0.389,0.107-0.753,0.323-1.098
		c0,0.302,0.106,0.656,0.321,1.064c0.215,0.409,0.323,0.677,0.323,0.807C53.786,51.437,53.658,51.888,53.4,52.448z M52.109,51.158
		h-0.194v-0.646h0.194V51.158z M55.721,54.254c-0.257-0.646-0.387-1.204-0.387-1.679c0-0.257,0.042-0.494,0.129-0.709
		C55.506,52.382,55.592,53.179,55.721,54.254z M50.949,63.864c0-1.247-0.474-4.428-1.419-9.546c0.042,0.603,0.194,1.655,0.452,3.16
		c0.257,1.334,0.387,2.387,0.387,3.161v3.096l0.386,0.323L50.949,63.864z M51.658,57.866c-0.042-0.945-0.193-1.978-0.452-3.097
		C51.206,55.716,51.356,56.748,51.658,57.866z M54.561,58.961V58.51c0-0.086-0.044-0.171-0.129-0.258
		c-0.086-0.086-0.129-0.15-0.129-0.194h-0.387l-0.064,0.452l0.452,0.581L54.561,58.961z M57.786,64.186v-0.322
		c-0.129-0.042-0.281-0.194-0.452-0.451c-0.087,0-0.28-0.258-0.581-0.774c0-0.558-0.194-0.924-0.581-1.097
		c0.258,0.173,0.322,0.389,0.193,0.646c-0.087-0.043-0.215-0.064-0.387-0.064c0.042-0.13,0.107-0.301,0.194-0.517
		c-0.345,0.431-0.517,0.709-0.517,0.839c0,0.259,0.204,0.657,0.613,1.194c0.408,0.537,0.719,0.805,0.935,0.805
		c0.086,0,0.107-0.031,0.064-0.096c-0.043-0.065-0.022-0.098,0.065-0.098c0.042,0,0.085,0.043,0.128,0.129
		c0.042,0.087,0.086,0.13,0.13,0.13C57.592,64.293,57.657,64.186,57.786,64.186z M51.852,63.477v-0.193h-0.194v0.193H51.852z
		 M48.433,66.573v-0.128l-0.838-0.13v0.192L48.433,66.573z M63.397,70.184c0.042,0.043,0.322,0.065,0.838,0.065
		c0.042,0,0.118-0.032,0.226-0.098c0.107-0.064,0.183-0.096,0.227-0.096c0.257,0,0.386-0.087,0.386-0.257
		c0-0.302-0.107-0.453-0.322-0.453C64.278,69.346,63.827,69.625,63.397,70.184z"/>
	<path fill="#010101" d="M99.517,68.959l-0.13-0.129l-1.096,3.289l-0.064-2.387c-0.517,0.774-0.775,1.698-0.775,2.774
		c0,0.473,0.042,0.944,0.129,1.418l-0.387,0.516l-0.322-1.031l-1.484,3.805c-1.763,0.431-3.312-2.924-4.644-10.062
		c-2.752-1.118-5.354-5.652-7.804-13.609c-0.258-0.815-1.85-6.342-4.773-16.577l-0.387,2.452c0.042-0.516,0.064-0.988,0.064-1.42
		c0-1.977-0.451-3.396-1.354-4.256l-0.904,2.515l-0.193-0.129l0.516-2.645l-0.645-1.161c-0.216,1.291-0.323,2.773-0.323,4.451
		c0,2.021,0.15,4.3,0.452,6.837v-2.387c1.033,4.859,1.548,11.352,1.548,19.479c0,7.354-0.538,12.535-1.613,15.545l-0.322-0.064
		l-3.612,1.548L69.523,76.7c-1.333-3.914-2.215-7.074-2.644-9.481l-0.193,0.063l-0.064-0.386c1.161-2.796,1.741-6.859,1.741-12.19
		c0-2.667-0.183-6.645-0.549-11.934c-0.365-5.289-0.548-9.266-0.548-11.933c0-6.922,1.097-11.567,3.29-13.932l4.967,0.064
		l1.096,0.903l0.193-0.063c2.623,2.795,4.472,6.32,5.547,10.577c0.042,0.258,0.945,4.215,2.709,11.869l-0.193-0.322l1.935,5.998
		c-0.732-1.074-1.828-3.634-3.29-7.676l-0.064,0.129l1.096,3.547h-0.129c0.602,1.937,1.654,4.58,3.161,7.935
		c1.633,3.656,2.73,6.278,3.29,7.869c0.042-1.549-0.323-3.376-1.097-5.483l-0.128,0.194c-0.603-1.29-1.398-3.247-2.388-5.869
		c1.72,2.967,2.945,5.654,3.677,8.061c0.13-0.987,0.194-2.514,0.194-4.578c0-2.58-0.097-6.46-0.291-11.643
		c-0.193-5.181-0.291-9.063-0.291-11.643c0-7.481,0.623-11.868,1.872-13.158l0.516,0.581l0.128-0.451l0.517,0.645l0.386-1.162
		c4.816,2.108,7.225,5.547,7.225,10.32c0,1.635-0.301,4.042-0.904,7.224c-0.602,3.183-0.903,5.591-0.903,7.224
		c0,1.334,0.15,2.581,0.452,3.742c0.688,2.623,1.033,5.354,1.033,8.19c0,1.765-0.291,4.398-0.871,7.901
		c-0.581,3.506-0.871,6.139-0.871,7.902C99.129,66.938,99.258,68.013,99.517,68.959z M92.55,15.554l-0.128-1.226h-0.13l0.13,1.226
		H92.55z M94.292,17.682l-0.065-1.225h-0.128l0.064,1.225H94.292z M77.651,17.875h-0.129v-0.451h0.129V17.875z M93.001,18.198
		v-0.258h-0.128v0.258H93.001z M80.167,30.259l-0.129-0.258l-0.064,0.064l0.064,0.193H80.167z M84.229,41.741
		c-0.258-1.848-1.612-5.633-4.063-11.353L84.229,41.741z M72.362,33.935l-0.258,0.259c0.042-0.215-0.064-0.472-0.322-0.773v-1.678
		l-0.065,0.129l-0.128-0.129c0.042-0.73-0.043-1.139-0.258-1.225c-0.043,0.172-0.129,0.408-0.258,0.709l-0.194-0.065
		c0.042,0.13,0.021,0.475-0.064,1.032c0.086,0.043,0.15,0,0.193-0.128c0.086,0.946,0.366,2.215,0.839,3.806
		c0,0.043,0.117,0.192,0.354,0.451c0.236,0.259,0.354,0.472,0.354,0.644c0.086-0.557,0.129-0.751,0.129-0.58
		c0-0.214-0.065-0.601-0.193-1.16C72.362,34.667,72.319,34.237,72.362,33.935z M70.685,32.71c-0.043,0.603-0.087,1.463-0.129,2.58
		c-0.087-0.301-0.054-0.59,0.097-0.871c0.15-0.278,0.226-0.484,0.226-0.612c0-0.129-0.032-0.312-0.096-0.549
		C70.717,33.023,70.685,32.839,70.685,32.71z M71.33,35.291l-0.065-0.452h-0.128l0.064,0.452H71.33z M73.78,49.609
		c-0.042-1.548-0.322-3.977-0.838-7.288c-0.559-3.698-1.096-5.978-1.612-6.837c0.344,1.506,0.838,4.214,1.483,8.127
		C72.985,45.158,73.307,47.159,73.78,49.609z M73.716,54.125l-0.129,0.321l-2.323-15.415l0.13-0.128l0.193,0.58
		c-0.215-1.419-0.516-2.58-0.903-3.482v0.451l-0.129-0.259C72.319,47.331,73.2,55.458,73.2,60.575c0,1.764-0.064,3.483-0.193,5.16
		C73.608,61.606,73.845,57.737,73.716,54.125z M71.976,42.127l-0.065-0.323h-0.129l0.065,0.323H71.976z M72.297,44.514v-0.323
		h-0.129v0.323H72.297z M87.068,46.319h-0.129l-0.064-0.322h0.129L87.068,46.319z M70.813,46.126v3.805l-0.064,3.871l0.452-0.902
		v2.9c0.387-1.202,0.581-2.386,0.581-3.547C71.781,51.954,71.458,49.911,70.813,46.126z M96.098,46.707h-0.128l-0.064,0.581h0.129
		L96.098,46.707z M96.807,49.222v-1.677h-0.128v1.677H96.807z M95.905,48.061v-0.322h-0.13v0.322H95.905z M89.003,49.288
		c-0.258-0.388-0.387-0.688-0.387-0.903c0-0.042,0.021-0.042,0.064,0c0.13,0.087,0.236,0.236,0.323,0.451V49.288z M90.164,51.351
		h-0.13l-0.128-0.58h0.064L90.164,51.351z M95.518,52.253c0.042,1.722,0,3.419-0.129,5.096c-0.043,0.773-0.129,1.549-0.258,2.322
		c0,0.216,0.064,0.451,0.194,0.71C95.496,58.575,95.56,55.867,95.518,52.253z M87.777,52.9l-0.064-0.259l-0.129,0.064l0.064,0.194
		H87.777z M96.614,53.157v-0.451h-0.129v0.451H96.614z M87.455,55.608c0.042-0.645-0.152-1.053-0.581-1.226
		C86.917,54.769,87.11,55.179,87.455,55.608z M96.549,55.608c-0.301,1.334-0.452,2.279-0.452,2.839l0.193,0.708
		C96.506,58.167,96.592,56.985,96.549,55.608z M99.452,59.027c-0.086,0.344-0.172,0.73-0.258,1.16c-0.087-0.041-0.151-0.041-0.194,0
		l0.065,3.097C99.107,62.251,99.236,60.833,99.452,59.027z M96.356,59.284c-0.087,0.087-0.108,0.668-0.065,1.742
		C96.291,60.295,96.313,59.714,96.356,59.284z M76.103,59.284C75.5,63.371,75.2,65.841,75.2,66.702c0,0.344,0.021,0.623,0.065,0.839
		C75.608,66.896,75.887,64.144,76.103,59.284z M95.324,61.993V60.96h-0.129v1.032H95.324z M96.356,61.735l-0.13-0.451h-0.129
		l0.129,0.451H96.356z M95.324,62.251v-0.194h-0.129v0.194H95.324z M98.097,62.187h-0.064l-0.257,2.773h0.128L98.097,62.187z
		 M99.258,65.089c-0.344,0.215-0.516,0.623-0.516,1.226v1.354c-0.129,0.516-0.194,0.709-0.194,0.581
		c0,0.344,0.042,0.773,0.129,1.289c0.086-0.086,0.171-0.193,0.258-0.322v-2.772c0,0.128,0.085-0.044,0.258-0.518L99.258,65.089z
		 M72.942,65.798h-0.065l-0.128,0.389h0.128L72.942,65.798z M95.066,67.282v-0.129l-0.387-0.063v0.129L95.066,67.282z M97.84,67.733
		v-0.515H97.71v0.515H97.84z M96.227,68.702c-0.171-0.258-0.257-0.451-0.257-0.581v-0.193c0.042-0.086,0.064-0.151,0.064-0.194
		c-0.044,0-0.108,0.065-0.194,0.194c-0.042-0.043-0.086-0.129-0.128-0.258c0.042,0.215-0.043,0.581-0.257,1.096
		c0.042,0,0.128,0.021,0.257,0.065h0.258c0.042,0,0.086-0.023,0.128-0.065C96.141,68.722,96.183,68.702,96.227,68.702z
		 M95.259,67.798c-0.216,0-0.387-0.044-0.516-0.129c-0.043,0.042-0.108,0.085-0.193,0.129c0.085,0.086,0.214,0.172,0.386,0.258
		c0-0.043,0.043-0.063,0.129-0.063c0.128,0.041,0.193,0.171,0.193,0.386C95.345,68.164,95.345,67.97,95.259,67.798z M96.742,70.507
		V70.25l-0.58-0.065c0,0.086-0.043,0.151-0.129,0.195c0.129,0.041,0.3,0.149,0.516,0.322C96.592,70.614,96.657,70.55,96.742,70.507z
		 M97.452,70.379c-0.128,0-0.301-0.023-0.516-0.065c0,0.729-0.216,1.098-0.646,1.098c0.042,0.515,0.042,0.815,0,0.901
		c-0.043-0.128-0.086-0.321-0.128-0.58l-0.193,0.193v0.71c0.128-0.044,0.322,0,0.58,0.129l0.129-0.129
		c0.042,0.085,0.171,0.105,0.387,0.063C97.065,72.915,97.194,72.141,97.452,70.379z M73.071,72.443
		c-0.086,0-0.151-0.023-0.194-0.065c0,0.042,0.065-0.236,0.194-0.839h-0.258c-0.474,0.43-0.71,1.032-0.71,1.807v0.452
		c0.172,0.344,0.258,0.473,0.258,0.387c0,0.13-0.086,0.235-0.258,0.322v0.322c0.129-0.043,0.28-0.086,0.451-0.129
		c0.042-0.129,0.194-0.386,0.452-0.774c0.214-0.258,0.322-0.493,0.322-0.709c0-0.086-0.043-0.205-0.129-0.354
		C73.113,72.711,73.071,72.571,73.071,72.443z"/>
	<path fill="#010101" d="M136.54,45.545l-0.903,0.646l0.064,0.194l-3.29,1.676l0.065,0.13l2.708-0.452l-1.161,0.773h0.323
		l-3.482,1.355c1.29-0.301,2.257-0.451,2.902-0.451c0.902,0,1.655,0.215,2.258,0.645l-1.807,0.58h1.097l0.063,0.13
		c-1.462,1.204-3.72,2.063-6.772,2.58c-2.494,0.43-4.966,0.58-7.417,0.451l-0.065,0.063c2.622,0.431,4.838,0.41,6.644-0.063
		c0.258-0.086,1.247-0.494,2.967-1.227c1.204-0.516,2.236-0.773,3.097-0.773h0.516v0.258l-4.192,2.322l0.258,6.128
		c0.171,3.74-0.667,6.729-2.516,8.965l0.065-0.773l-1.419,2.451l0.581-1.742v-0.064l-1.805,2.258
		c0.988-1.765,2.322-4.473,3.999-8.127v-0.13c-0.732,1.549-1.936,3.784-3.612,6.709c0.344-0.774,0.881-1.893,1.613-3.354v-0.257
		c-0.99,1.978-1.871,3.395-2.645,4.257l0.517-0.775l-1.871,2.129l0.194,0.13l1.29-1.098v0.324l-1.935,2.063l0.516-0.258
		l-1.742,1.549l0.323,0.708l-2.837,1.29l0.516,0.194l2.322-0.58c-1.677,0.729-3.269,1.097-4.773,1.097
		c-5.16,0-8.901-4-11.223-11.998c-1.548-5.289-2.322-11.33-2.322-18.125c0-5.46,0.516-10.856,1.548-16.189
		c1.333-6.836,3.291-11.781,5.87-14.835l-1.677,3.483v0.129c0.602-1.074,1.654-2.602,3.16-4.58c-0.344,0.732-0.881,1.829-1.613,3.29
		l0.065,0.645c1.074-2.106,2.365-3.634,3.87-4.58l-1.161,0.194l0.129-0.387l-0.581,0.193c1.419-0.815,2.88-1.225,4.386-1.225
		c0.988,0,1.913,0.193,2.773,0.581l0.129-0.258c0.989,0.645,2.451,1.204,4.386,1.677c2.278,0.56,3.805,1.032,4.579,1.419
		c1.248,0.603,1.872,1.547,1.872,2.838c0,1.161-0.539,2.688-1.612,4.58l-0.194-0.258c0.085,0.387,0.128,0.752,0.128,1.096
		c0,1.721-1.205,2.581-3.613,2.581c-2.364,0-4.536-0.537-6.513-1.613c-2.236,1.463-3.721,3.119-4.45,4.968
		c-0.947,2.451-1.678,3.979-2.193,4.579l0.451,0.709l-0.516,1.612l-1.033,0.646c-0.387,1.806-0.86,4.559-1.419,8.256
		c-0.216-1.547-0.322-3.181-0.322-4.901c0-3.741,0.473-6.708,1.419-8.901l-0.194-0.45c-0.731,0.902-1.205,2.579-1.419,5.03
		c-0.216,2.45-0.603,4.105-1.161,4.967l-0.257-1.354c-0.302,1.075-0.452,2.343-0.452,3.805c0,2.409,0.323,5.054,0.968,7.933
		c0.3,1.334,0.859,3.765,1.677,7.289l0.322-0.903l0.193,0.065c-0.172-0.517-0.258-1.031-0.258-1.549c0-1.203,0.473-1.805,1.42-1.805
		c0.3,0,0.602,0.063,0.903,0.192c0.258,0.688,0.493,1.829,0.709,3.418c0.215,1.593,0.473,2.775,0.774,3.549
		c0.859,2.063,2.021,3.096,3.483,3.096c1.977,0,4.192-1.634,6.643-4.902c2.193-2.924,3.44-5.438,3.741-7.546
		c-3.095,0.474-4.773,0.708-5.03,0.708c-1.549,0-2.816-0.429-3.805-1.288c-0.043-0.474-0.065-0.969-0.065-1.484
		c0-0.645,0.042-1.332,0.128-2.064l-0.387-0.773h1.742l-1.806-0.322l0.064-5.031c2.279-0.729,6.213-1.354,11.804-1.871l-0.386,0.259
		l1.934-0.13l1.677,1.161c-1.075,0.345-2.667,0.817-4.773,1.42l2.967-0.452l0.129,0.064c2.235,0,3.354,0.108,3.354,0.323
		c-0.086,0.087-0.41,0.172-0.967,0.257l0.58,0.71l-0.128,0.194L136.54,45.545z M119.897,16.263l-0.322-0.258l-0.065,0.064
		l0.259,0.257L119.897,16.263z M113.383,17.553c-1.506,0.99-2.667,2.645-3.483,4.966c-0.645,1.806-1.141,2.882-1.483,3.225
		c0.128-0.73,0.386-1.548,0.773-2.451l-0.193,0.258c0.042-0.3,0.258-1.138,0.645-2.515c-1.419,2.279-2.128,4.021-2.128,5.224
		c0,0.345,0.042,0.668,0.128,0.967c-1.075,1.979-1.613,5.849-1.613,11.61c0,3.958,0.236,7.03,0.71,9.224h0.193
		c-0.301-2.193-0.451-3.524-0.451-3.999c0-0.944,0.194-1.634,0.581-2.063c0.343-4.687,0.58-7.482,0.709-8.385
		c0.386-3.01,1.01-5.74,1.871-8.192c-0.302,0.947-0.797,2.387-1.484,4.322c-0.172-1.549,0.387-3.677,1.678-6.386
		C110.91,21.079,112.093,19.144,113.383,17.553z M111.062,18.133l-0.13-0.064l-0.322,0.581l0.064,0.065L111.062,18.133z
		 M123.704,21.294c-0.646-0.559-1.012-0.859-1.098-0.903c-0.086,0-0.128,0.044-0.128,0.129l-0.129-0.129l0.065-0.193
		c-0.043,0.043-0.108,0.064-0.194,0.064c-0.086,0-0.151-0.042-0.194-0.128c0.043-0.043,0.065-0.107,0.065-0.193
		c-0.129-0.085-0.645-0.494-1.548-1.225c0.129,0.128,0.323,0.344,0.58,0.644c-0.257-0.042-0.709-0.365-1.354-0.968
		C120.972,20.026,122.285,20.993,123.704,21.294z M114.802,19.036h-0.322l-0.581,0.388c0-0.258,0.021-0.151,0.064,0.322
		C114.307,19.574,114.587,19.337,114.802,19.036z M110.997,19.294h-0.129l-0.258,0.581l0.129,0.064L110.997,19.294z M112.352,21.101
		l-0.129-0.064l-0.774,1.29l0.129,0.064L112.352,21.101z M113.835,21.487l-0.129-0.064l-0.709,0.709l0.128,0.13L113.835,21.487z
		 M130.283,22.197c-0.044,0.257-0.216,0.58-0.516,0.967c0,0.172-0.065,0.409-0.194,0.709l0.258,0.128l0.58-1.225
		c0-0.086-0.022-0.183-0.064-0.29C130.303,22.38,130.283,22.284,130.283,22.197z M110.997,22.906h-0.129l-0.258,0.516l0.064,0.064
		L110.997,22.906z M111.577,23.745c-0.258,0.345-0.581,0.903-0.967,1.677c-0.086,0.301-0.237,0.753-0.451,1.354l-1.033,2.903
		c0.042-0.3,0.107-0.773,0.193-1.42c-0.516,2.236-0.774,3.699-0.774,4.388l0.194-0.13c0.558-2.536,1.311-4.838,2.257-6.902
		C111.469,24.583,111.663,23.96,111.577,23.745z M110.545,23.745h-0.129l-0.064,0.193l0.064,0.064L110.545,23.745z M110.416,24.067
		h-0.128l-0.129,0.194l0.129,0.064L110.416,24.067z M110.223,24.325h-0.129l-0.129,0.387h0.194L110.223,24.325z M110.803,24.52
		h-0.129l-0.064,0.257l0.064,0.064L110.803,24.52z M111.707,24.777l-0.065-0.065l-0.128,0.259h0.128L111.707,24.777z
		 M110.029,24.777H109.9l-0.258,0.581l0.128,0.064L110.029,24.777z M110.48,25.809v-0.193h-0.129v0.193H110.48z M109.578,27.744
		h-0.193l-0.065,0.516h0.129L109.578,27.744z M109.126,30.13l-0.064,0.388h-0.193l0.129-0.388H109.126z M108.804,31.677h-0.129
		v-0.191h0.129V31.677z M107.772,32.388h-0.129v-0.451h0.129V32.388z M104.934,34.709v-0.387h-0.129v0.387H104.934z M108.933,34.838
		h-0.129l-0.322,2.968h0.128L108.933,34.838z M105.127,35.291v-0.321c-0.042-0.043-0.151-0.087-0.322-0.131
		c0,0.088-0.022,0.238-0.064,0.452H105.127z M109.062,37.741h-0.128l-0.129,0.969h0.129L109.062,37.741z M108.868,39.225v-0.452
		h-0.129v0.452H108.868z M107.514,40.192h-0.129l-0.064,2.517h0.129L107.514,40.192z M108.61,41.29v-0.451h-0.128v0.451H108.61z
		 M128.412,45.353v-0.195h-0.258v0.195H128.412z M127.896,45.417v-0.129l-2.838,0.388v0.129L127.896,45.417z M123.961,45.482h-1.032
		c-0.128,0-0.313,0.043-0.548,0.129c-0.237,0.086-0.419,0.128-0.548,0.128h-1.807l1.355,0.194c0.429,0.129,0.622,0.193,0.58,0.193
		c0.171,0,0.44-0.033,0.806-0.097c0.365-0.065,0.634-0.097,0.807-0.097C123.745,45.761,123.875,45.611,123.961,45.482z
		 M124.864,45.933v-0.129h-0.194v0.129H124.864z M129.896,46.836v-0.13h-0.322v0.13H129.896z M129.573,46.9v-0.13l-2.645,0.453
		v0.128L129.573,46.9z M130.864,47.159l-0.065-0.13l-0.194,0.13v0.129L130.864,47.159z M125.703,47.868
		c-0.516,0-0.903-0.021-1.161-0.064c0.3-0.129,0.537-0.193,0.709-0.193c-0.216-0.043-0.473,0-0.773,0.129
		c-0.301,0.129-0.516,0.193-0.646,0.193h-1.161c-0.474,0-0.838,0-1.096,0c-0.301,0.043-0.345,0.064-0.129,0.064
		c-0.043,0-0.097-0.032-0.161-0.097c-0.065-0.064-0.119-0.097-0.162-0.097c-0.128,0-0.28,0.043-0.451,0.129
		c1.461,0.215,2.063,0.322,1.806,0.322C123.124,48.254,124.197,48.125,125.703,47.868z M110.932,63.477
		c-1.806-2.235-2.708-4.73-2.708-7.482v-2.321c0-1.764-0.281-3.354-0.838-4.773c-0.043,1.161,0.085,3.806,0.387,7.935
		c-0.387-0.775-0.645-1.979-0.774-3.612c-0.129-1.635-0.344-2.796-0.645-3.483c0,5.978,0.473,9.545,1.419,10.706l1.161,1.161
		C109.319,62.081,109.986,62.704,110.932,63.477z M134.088,50.771v-0.13l-0.516,0.063V50.9L134.088,50.771z M133.508,50.963v-0.129
		h-0.194v0.129H133.508z M132.669,51.222v-0.129h-0.193v0.129H132.669z M132.089,51.351v-0.129h-0.194v0.129H132.089z
		 M130.992,52.382v-0.129h-0.194v0.129H130.992z M129.767,57.286v-0.388h-0.13v0.388H129.767z M131.83,60.51l0.065-1.871
		c0,0.13,0.053,0.313,0.161,0.548c0.107,0.238,0.161,0.398,0.161,0.484L131.83,60.51z M132.733,59.865
		c-0.042,0.903-0.301,1.957-0.773,3.161c0.129-0.86,0.323-2.129,0.58-3.806c0.043,0.173,0.107,0.344,0.193,0.515
		c0.129-0.342,0.28-0.558,0.453-0.644C133.227,59.522,133.078,59.779,132.733,59.865z M112.352,65.798
		c-2.667-1.718-4.386-3.847-5.16-6.386c0,1.377,0.774,2.774,2.322,4.193c-0.43-0.129-0.903-0.537-1.419-1.226
		C108.739,63.371,110.159,64.509,112.352,65.798z M113.641,62.961c-0.215-0.559-0.386-0.839-0.516-0.839
		c-0.215,0-0.345,0.15-0.387,0.451c-0.043,0.302,0.086,0.495,0.387,0.581l0.194-0.193c-0.087-0.129-0.152-0.366-0.194-0.71
		C113.254,62.38,113.425,62.617,113.641,62.961z M131.702,62.251l-0.581,2.58h-0.128l0.581-2.58H131.702z M111.319,63.735
		l-0.193-0.258l-0.129,0.129l0.193,0.193L111.319,63.735z M126.154,63.799h-0.129l-0.064,0.259l0.128,0.063L126.154,63.799z
		 M128.412,64.25v-0.192h-0.258v0.192H128.412z M125.833,64.379h-0.13l-0.064,0.258l0.064,0.065L125.833,64.379z M126.864,64.574
		l-0.128-0.064l-0.13,0.258h0.13L126.864,64.574z M131.895,64.574l-0.129,0.387l-0.129-0.064l0.129-0.322H131.895z M129.379,64.637
		h-0.128l-0.129,0.259l0.129,0.064L129.379,64.637z M129.122,64.96c-0.258,0.73-0.625,1.827-1.097,3.29
		c0.816-1.161,1.226-2.107,1.226-2.839C129.251,65.24,129.207,65.089,129.122,64.96z M125.51,64.96h-0.129l-0.193,0.387h0.129
		L125.51,64.96z M127.96,65.605l-0.129-0.064l-0.193,0.258l0.128,0.066L127.96,65.605z M127.703,65.927l-0.129-0.063l-0.129,0.191
		l0.129,0.065L127.703,65.927z M127.509,66.187l-0.129-0.065l-0.064,0.193l0.064,0.064L127.509,66.187z M121.059,67.218
		c-0.989,0.515-2.515,0.838-4.58,0.967h0.709C118.866,68.185,120.156,67.862,121.059,67.218z M124.8,67.862v-0.192h-0.129v0.192
		H124.8z M110.61,69.024c-0.129-0.043-0.258-0.129-0.387-0.259c0.042-0.085,0.15-0.171,0.323-0.257c0-0.173-0.28-0.388-0.839-0.646
		c-0.516,0-0.796-0.021-0.838-0.063c0.086,0.258,0.451,0.452,1.096,0.58c-0.086,0.044-0.172,0.13-0.258,0.258
		c0.129,0.215,0.387,0.495,0.774,0.839L110.61,69.024z M110.803,68.895v-0.322h-0.129v0.322H110.803z M127.379,69.088h-0.128
		l-0.129,0.193l0.129,0.064L127.379,69.088z M114.609,71.412v-0.518h-0.194v0.518H114.609z M118.221,71.667
		c-0.172-0.086-0.366,0.022-0.581,0.324h0.323C118.049,71.948,118.134,71.839,118.221,71.667z M123.316,72.12l-0.065-0.064
		l-0.322,0.322l0.065,0.065L123.316,72.12z M122.671,72.7l-0.129-0.129l-0.257,0.194l0.063,0.129L122.671,72.7z M121.317,75.28
		h-0.129v-0.322h0.129V75.28z"/>
	<path fill="#010101" d="M173.561,68.444l-0.32,0.516l-0.775-0.323l-1.483,2.065l1.289,1.29l-1.548,0.516l-0.386,2.321l-0.388,0.064
		l0.773,0.452c-0.688,0.473-2.772,0.709-6.256,0.709c-7.009,0-14.277-0.495-21.801-1.483l-0.516,0.451l-1.032-0.322l-1.742-2.451
		c-0.043-0.43-0.216-1.161-0.516-2.192c-0.302-1.032-0.452-1.829-0.452-2.387c0-0.388,0.065-0.773,0.194-1.162l-0.838-0.451
		l0.257-0.451l-1.096-3.29l1.871-1.934l-0.194-0.13l0.774-0.192c0-3.396-0.345-8.492-1.033-15.286
		c-0.687-6.794-1.031-11.891-1.031-15.287c0-3.268,0.279-6.429,0.838-9.482c0.817-4.515,2.085-6.773,3.805-6.773
		c1.204,0,1.807,0.538,1.807,1.613c0,1.119-0.43,2.322-1.291,3.611l0.323,3.097l0.322,0.322c-0.862,1.119-1.355,2.603-1.483,4.451
		c-0.043,0.345-0.108,1.978-0.194,4.902c-0.043-2.623,0.065-5.999,0.322-10.126c-1.032,1.849-1.548,5.546-1.548,11.093
		c0,3.483,0.215,8.021,0.645,13.61c0.517,6.795,0.817,11.31,0.903,13.545c1.29,0.645,3.934,1.054,7.934,1.226
		c5.976,0.258,9.716,0.474,11.222,0.645c4.472,0.516,7.998,1.505,10.579,2.967C171.884,65.821,172.572,67.239,173.561,68.444z
		 M140.667,17.102l0.193,0.128c0.258-0.128,0.452-0.171,0.581-0.128c0.214,0.128,0.365,0.193,0.452,0.193
		c0.171,0,0.408-0.279,0.709-0.838c0.301-0.558,0.452-0.945,0.452-1.161c0-0.945-0.301-1.419-0.903-1.419
		c-0.99,0-1.483,0.645-1.483,1.935V17.102z M145.956,20.971c0,0.129,0.021,0.333,0.064,0.612c0.042,0.281,0.064,0.484,0.064,0.614
		c-0.042-0.043-0.108-0.215-0.193-0.517c-0.216,0.732-0.41,1.462-0.581,2.193c0-0.344,0.032-0.828,0.096-1.451
		c0.065-0.623,0.098-1.107,0.098-1.452c0-0.042-0.043-0.472-0.129-1.29c-0.044-0.516-0.044-0.945,0-1.291
		c0.085-0.472,0.258-0.859,0.516-1.161c0.387,0.215,0.581,0.431,0.581,0.645c0-0.171-0.108,0.087-0.322,0.774
		C146.278,19.208,146.213,19.982,145.956,20.971z M148.278,26.002c0.042-1.032,0.021-2.021-0.065-2.968l-0.128-1.418l-0.194-2.645
		c0.43,0.086,0.666,0.688,0.709,1.806c-0.044-0.988-0.065-0.258-0.065,2.193C148.535,23.315,148.448,24.325,148.278,26.002z
		 M138.989,23.68c-0.128,1.506-0.151,3.505-0.065,5.999l0.194,5.998l-0.129-0.193c0.301,1.678,0.602,4.214,0.904,7.61l-0.065-0.192
		c0.214,3.439,0.322,6.837,0.322,10.189c0,2.107-0.043,4.194-0.128,6.258l0.258,0.451l0.646-0.517
		c-0.044-0.472-0.022-1.129,0.064-1.967c0.085-0.838,0.129-1.407,0.129-1.709c0-3.097-0.377-7.75-1.128-13.964
		c-0.754-6.214-1.129-10.869-1.129-13.965C138.861,26.304,138.903,24.971,138.989,23.68z M144.859,52.125l-0.065-0.194l-0.322,0.322
		c0-0.945-0.194-2.322-0.581-4.128l-0.128,0.451c-0.043-0.258-0.129-0.902-0.259-1.934l0.387-0.13c0-0.172-0.108-0.44-0.322-0.806
		c-0.216-0.365-0.322-0.655-0.322-0.872l0.257,0.13c0.086-1.161,0.022-1.999-0.193-2.516l-0.129,1.226
		c-0.386-2.322-0.581-4.88-0.581-7.675c0-2.021,0.215-5.935,0.646-11.739c0.387,0.128,0.73,0.344,1.032,0.645l0.451-0.194
		l-0.193,0.451c0.171,0.775,0.343,1.399,0.517,1.871l0.193,0.129v-0.321c-0.087,0.773,0,1.334,0.258,1.676l0.193-1.935
		c0.259,0.731,0.388,1.549,0.388,2.451c0,0.773-0.14,1.935-0.419,3.483c-0.281,1.548-0.419,2.709-0.419,3.483v12.19
		c0,0.386-0.076,1.021-0.226,1.902C144.869,50.975,144.815,51.653,144.859,52.125z M144.794,31.872h-0.516L144.343,32
		c-0.043,0.345-0.065,0.817-0.065,1.42c0,0.086,0.032,0.204,0.097,0.354c0.065,0.15,0.097,0.247,0.097,0.29
		c0,0.042-0.064,0.129-0.194,0.258c0,0.129,0.065,0.452,0.194,0.968c0-0.086,0.054-0.247,0.162-0.484
		c0.106-0.235,0.16-0.419,0.16-0.548v-0.903c-0.216,0-0.344-0.042-0.386-0.129c0.429-0.387,0.623-0.623,0.58-0.709
		C144.859,32.129,144.794,31.916,144.794,31.872z M139.44,43.288v-0.386h-0.128v0.386H139.44z M143.634,45.611v-0.258h-0.13v0.258
		H143.634z M143.634,49.158l-0.13,0.322h-0.129l0.129-0.322H143.634z M139.957,49.48v-0.258h-0.193v0.258H139.957z M143.891,57.22
		c-0.086-1.763-0.194-4.277-0.322-7.547C143.783,51.609,143.891,54.125,143.891,57.22z M140.021,52.253V51.48h-0.194v0.773H140.021z
		 M140.021,53.351v-0.71h-0.194v0.71H140.021z M143.569,58.189c-0.129,0-0.236-0.043-0.322-0.131l0.257-0.192
		C143.504,57.952,143.526,58.058,143.569,58.189z M148.341,60.897v-0.322h-0.387c-0.171,0.043-0.301,0.064-0.387,0.064
		c-0.129,0-0.301-0.033-0.516-0.098c-0.215-0.063-0.387-0.097-0.516-0.097c-0.087,0-0.194,0.087-0.323,0.258
		c0.215,0.044,0.517,0.13,0.903,0.258c-0.086-0.042-0.129-0.084-0.129-0.128c0.042-0.086,0.15-0.13,0.322-0.13
		S147.826,60.768,148.341,60.897z M146.084,60.639l-0.645-0.129c-0.129,0-0.237,0.192-0.323,0.58c0.129,0,0.236,0.021,0.323,0.064
		C145.525,60.983,145.74,60.811,146.084,60.639z M148.987,60.639c-0.387,0-0.561,0.087-0.516,0.258h0.322L148.987,60.639z
		 M167.24,61.864l-0.903-0.258c0.301,0.387,0.537,0.581,0.71,0.581C167.218,62.187,167.282,62.081,167.24,61.864z M145.633,67.604
		l-0.064-0.451c0.214,0,0.193,0-0.065,0c-0.258-0.044-0.624-0.063-1.096-0.063h-1.161c-0.387,0-0.861-0.044-1.419-0.13
		c-0.516-0.086-1.011-0.043-1.484,0.13c1.248,0.258,2.064,0.388,2.452,0.388C144.127,67.477,145.073,67.519,145.633,67.604z
		 M168.402,67.024c0.084,0.258,0.192,0.387,0.321,0.387c0.043-0.042,0.064-0.086,0.064-0.129
		C168.788,67.153,168.659,67.067,168.402,67.024z M168.079,67.218l-0.387-0.194l-0.065,0.129l0.452,0.194V67.218z M165.306,68.121
		c-0.989-0.644-2.258-0.945-3.806-0.902l-3.935,0.063l-0.192,0.129l-0.195-0.192l-3.482,0.386l-0.257-0.193l-1.033,0.193
		l-0.13-0.193c-0.516,0.216-1.569,0.259-3.16,0.13c-1.333-0.088-2.451-0.193-3.354-0.322c0.301,0.429,1.848,0.709,4.645,0.838
		l5.288,0.258l0.065,0.13c0.474,0,1.138-0.044,1.999-0.13c0.301-0.215,0.817-0.452,1.548-0.71c0.086-0.044,1.161,0.065,3.226,0.323
		l-0.26,0.065l0.969,0.258l0.194-0.194C163.864,68.056,164.488,68.078,165.306,68.121z M169.369,68.056
		c-0.044,0.171-0.13,0.388-0.259,0.646c-0.215-0.431-0.945-0.86-2.193-1.291c0.172,0.13,0.409,0.301,0.71,0.517l-0.129,0.129
		c-0.258-0.086-0.667-0.129-1.225-0.129c0.43,0.172,1.009,0.473,1.74,0.903c-0.043,0.043-0.128,0.086-0.257,0.129
		c-0.13-0.302-0.452-0.451-0.969-0.451c0.043,0.042-0.128,0.149-0.515,0.322c0.129,0,0.235,0.043,0.322,0.129l0.129-0.258
		c0.13,0.042,0.258,0.063,0.387,0.063c0,0.086-0.022,0.151-0.064,0.194h-0.13c0.56,0.258,0.946,0.387,1.162,0.387
		c0.945,0,1.419-0.301,1.419-0.902C169.498,68.573,169.455,68.444,169.369,68.056z M145.053,67.993
		c-0.087,0.041-0.259,0.106-0.517,0.192l0.257,0.129C144.966,68.227,145.053,68.121,145.053,67.993z M155.179,68.573v-0.194h-0.581
		v0.194H155.179z M154.018,68.444c-0.86-0.044-2.344-0.065-4.45-0.065c0.215,0.086,0.494,0.13,0.839,0.13
		c0.042,0,0.106,0.03,0.193,0.097c0.086,0.064,0.149,0.097,0.193,0.097h3.096L154.018,68.444z M166.207,68.444h-0.256l0.129,0.129
		c-0.087,0.042-0.108,0.107-0.065,0.192C166.057,68.68,166.123,68.573,166.207,68.444z M154.534,68.636v-0.128l-0.452-0.064v0.129
		L154.534,68.636z M169.691,69.153c-0.044-0.087-0.107-0.129-0.193-0.129c-0.087,0-0.173,0.042-0.259,0.129H169.691z
		 M169.046,69.863c-0.086-0.087-0.215-0.13-0.387-0.13v0.451L169.046,69.863z M168.402,70.959c0.04,0,0.128,0.042,0.257,0.128
		s0.236,0.129,0.323,0.129c0.085,0,0.128-0.063,0.128-0.193c0.043-0.087,0.022-0.15-0.064-0.192
		C169.133,70.873,168.917,70.916,168.402,70.959z M171.304,71.667c0-0.256-0.087-0.473-0.258-0.645h-0.323
		c0.087,0.172,0.107,0.389,0.066,0.645H171.304z M169.949,72.055c-0.603-0.087-1.118-0.15-1.547-0.193
		c0.472,0.258,0.837,0.387,1.096,0.387C169.713,72.249,169.863,72.185,169.949,72.055z M169.949,73.023
		c-0.043-0.086-0.086-0.215-0.129-0.387c-0.129,0.043-0.365,0.105-0.71,0.193C169.282,72.915,169.563,72.98,169.949,73.023z
		 M162.339,72.894v-0.129l-1.548,0.064v0.193L162.339,72.894z M166.725,73.41c-1.935-0.387-2.86-0.58-2.773-0.58h-1.483
		C163.758,72.958,165.176,73.152,166.725,73.41z M160.661,73.023V72.83h-0.257v0.193H160.661z M160.21,73.023V72.83h-0.322v0.193
		H160.21z M158.727,72.958l-0.064-0.129l-0.258,0.129v0.129L158.727,72.958z M158.275,73.087v-0.129h-0.259v0.129H158.275z
		 M157.888,73.087v-0.129h-0.515v0.129H157.888z M156.921,73.087v-0.129h-0.194v0.129H156.921z M167.886,73.861v-0.193l-1.161-0.258
		v0.13L167.886,73.861z M156.921,74.506h-0.388v-0.192h0.388V74.506z M143.247,76.054c-0.216,0.301-0.281,0.622-0.194,0.968
		c-0.128-0.088-0.193-0.193-0.193-0.322h-0.322c-0.129,0.042-0.216,0.063-0.259,0.063c-0.257,0-0.58-0.408-0.967-1.225l0.065-0.451
		l1.483,0.322C142.859,75.709,142.988,75.926,143.247,76.054z M142.859,77.151c0,0.172-0.108,0.364-0.322,0.58
		c-0.087-0.129-0.216-0.279-0.387-0.451C142.321,77.366,142.558,77.323,142.859,77.151z"/>
	<path fill="#010101" d="M174.335,14.844c1.161-1.203,3.549-1.806,7.16-1.806c2.709,0,5.676,0.301,8.9,0.903
		c3.697,0.688,6.536,1.571,8.514,2.646c0,1.418,0.021,2.408,0.065,2.966c0.085,1.119,0.344,2.064,0.774,2.837
		c-0.646,0.903-0.926,2-0.84,3.291l-0.192-0.065l-0.323,0.838l0.258,0.193l-0.773,0.904c-0.731,0.171-3.763,0.343-9.095,0.515
		c-1.075,0-2.644,0-4.708,0c-1.377,0-2.323,0.431-2.838,1.29c-0.302,0.517-0.517,1.592-0.645,3.225
		c-0.13,1.464-0.603,2.539-1.421,3.226v0.322c0.946,0.258,2.001,0.387,3.161,0.387c0.989,0,2.44-0.129,4.354-0.387
		c1.912-0.257,3.364-0.387,4.354-0.387c0.645,0,1.601,0.173,2.87,0.516c1.268,0.346,2.227,0.517,2.869,0.517
		c0.345,0,0.688-0.021,1.033-0.065l-0.967,0.969l0.772,0.838l0.774,0.129c-0.603,0.387-1.332,0.581-2.193,0.581
		c-0.343,0-1.011-0.042-1.998-0.13c-0.818-0.084-1.463-0.106-1.937-0.064c1.204,0.561,2.322,0.839,3.354,0.839
		c0.903,0,1.678-0.235,2.322-0.709l0.451,0.646l-0.516,3.224c0.428,0.947,0.645,1.871,0.645,2.774c0,0.902-0.217,1.699-0.645,2.387
		l-8.9,0.901c-3.397,0.346-6.322,0.883-8.772,1.612l0.71,5.936c0.644,0.86,1.053,2.73,1.226,5.611l0.709,0.452h0.257v-1.354
		l0.646-1.033l0.322,1.548c1.332-0.687,2.902-1.031,4.708-1.031c0.903,0,2.247,0.119,4.032,0.354
		c1.782,0.236,3.128,0.354,4.031,0.354c1.16,0,2.213-0.149,3.159-0.451l-0.645,1.161l0.322,0.063l-0.322,0.452l0.839,0.388
		l-2.709,1.419v0.129l2.45-0.839l-1.29,0.71l0.065,0.129l1.225-0.452l-0.063,0.193l0.45,0.065l-0.323,1.998l-1.74,1.226h0.128
		l2.388-1.677l-0.13,0.968l0.839,1.227c-0.817,0-2.151,0.73-3.999,2.192l3.546-1.419l-0.58,0.646l0.903,0.193
		c0.172,0.429,0.258,0.839,0.258,1.225c0,1.505-1.483,2.58-4.449,3.227l-6.193,0.773c-0.773,0.085-2.279,0.558-4.515,1.419
		c-2.021,0.773-3.482,1.16-4.387,1.16c-0.172,0-0.322-0.021-0.45-0.064c-0.774-0.345-2.086-6.794-3.935-19.35l-3.354-22.575
		l-1.677-6.579c-0.904-3.525-1.354-6.493-1.354-8.901C171.304,16.8,172.314,15.016,174.335,14.844z M198.136,19.23
		c-0.387-0.258-0.795-0.387-1.226-0.387c-0.216,0-0.45,0.043-0.71,0.129l0.194,0.387h0.258c0.086-0.171,0.323-0.236,0.71-0.193
		C197.705,19.208,197.965,19.23,198.136,19.23z M197.878,19.552v-0.129l-0.322,0.129v0.129L197.878,19.552z M197.362,20.648
		c-0.044-0.129-0.064-0.3-0.064-0.516c-0.087,0-0.129,0.086-0.129,0.258l-0.193-0.064c-0.129,0-0.281,0.064-0.452,0.193
		C196.738,20.607,197.018,20.648,197.362,20.648z M197.556,20.713V20.52h-0.129v0.193H197.556z M198.071,21.681v-0.322
		c-0.087-0.086-0.193-0.214-0.322-0.387c-0.13,0.387-0.151,0.645-0.065,0.774L198.071,21.681z M197.04,22.455
		c0.214,0.043-0.173,0.064-1.162,0.064c0,0.302,0.365,0.452,1.098,0.452C196.932,22.756,196.952,22.583,197.04,22.455z
		 M197.619,23.229V23.1l-0.45-0.065v0.13L197.619,23.229z M197.878,24.455c0-0.259-0.129-0.387-0.387-0.387
		c-0.043-0.043-0.088-0.171-0.129-0.387c-0.516-0.214-0.861-0.322-1.033-0.322c-0.086,0-0.191,0.064-0.321,0.193
		c0.258,0.043,0.666,0.151,1.225,0.323l-0.192,0.193l-1.162,0.194c0.601,0.172,1.098,0.258,1.484,0.258
		C197.576,24.52,197.749,24.498,197.878,24.455z M198.394,23.68h-0.645c0.172,0,0.344,0.108,0.517,0.322
		C198.266,23.874,198.306,23.767,198.394,23.68z M179.496,26.711v-0.838c-0.431-0.129-0.839-0.193-1.227-0.193
		c-0.215,0-0.236-0.065-0.063-0.194l-0.194,0.194c-0.172-0.171-0.301-0.215-0.388-0.129c-0.215,0.172-0.344,0.258-0.387,0.258
		c0.043,0.302,0.043,0.56,0,0.774c-0.043,0.129-0.086,0.322-0.129,0.58c0,0.217,0.129,0.475,0.388,0.774
		c0.259,0.302,0.493,0.451,0.71,0.451c0.129-0.086,0.407-0.3,0.838-0.645c-0.301-0.129-0.538-0.343-0.709-0.644l0.257-0.259
		c0.086-0.086,0.172-0.13,0.258-0.13c0.043,0,0.108,0.021,0.194,0.064c0.042,0,0.064-0.031,0.064-0.097
		c0-0.064,0.021-0.097,0.063-0.097C179.259,26.583,179.366,26.626,179.496,26.711z M186.913,26.583
		c-0.043-0.171-0.237-0.386-0.58-0.645c-0.173,0.173-0.259,0.344-0.259,0.516c0.13,0,0.215-0.021,0.259-0.064
		c0.084,0.043,0.128,0.108,0.128,0.193c0-0.085,0.021-0.15,0.064-0.193c0.043,0.043,0.064,0.108,0.064,0.193H186.913z
		 M175.432,36.323v-0.646c-0.172-0.171-0.345-0.258-0.517-0.258c-0.043,0.087-0.063,0.215-0.063,0.387
		c0.043-0.043,0.129-0.106,0.258-0.193c0.085,0.087,0.129,0.193,0.129,0.322c-0.086,0.043-0.172,0.129-0.258,0.258
		C175.066,36.237,175.216,36.28,175.432,36.323z M197.684,40.257c-1.332,0.43-2.149,0.644-2.449,0.644
		C195.836,41.031,196.652,40.816,197.684,40.257z M196.329,41.547v-0.13l-1.289-0.128v0.192L196.329,41.547z M197.942,42.192
		c0-0.129-0.021-0.344-0.064-0.645c-1.16,0.43-2.063,0.709-2.709,0.837c0.473,0.088,0.902,0.13,1.291,0.13
		C197.062,42.514,197.556,42.408,197.942,42.192z M178.464,43.353c-0.044-0.043-0.129-0.279-0.258-0.709
		c-0.13,0.302-0.151,0.603-0.065,0.902C178.27,43.418,178.377,43.353,178.464,43.353z M196.718,43.998
		c-0.432-0.042-1.098-0.107-2.001-0.193c0.688,0.216,1.312,0.366,1.871,0.452L196.718,43.998z M196.008,44.514l-0.322-0.13v0.13
		l0.322,0.128V44.514z M197.04,45.158c-0.173-0.042-0.41-0.105-0.711-0.192c0.131-0.042,0.345-0.106,0.646-0.192
		c-0.388,0.042-0.732,0.042-1.032,0c0.085,0.086,0.085,0.171,0,0.258c-0.387-0.13-0.754-0.195-1.097-0.195
		c0.042,0.088,0.064,0.217,0.064,0.389c0.129,0,0.29,0.031,0.482,0.095c0.195,0.065,0.334,0.098,0.421,0.098
		C196.2,45.417,196.609,45.332,197.04,45.158z M198.071,45.353c-0.258-0.043-0.603,0.021-1.031,0.192
		c0.129,0.044,0.301,0.087,0.516,0.13C197.684,45.717,197.855,45.611,198.071,45.353z M191.233,47.803
		c-0.042-0.129-0.063-0.322-0.063-0.58l-0.581,0.193v0.58h0.451L191.233,47.803z M194.202,48.061c0,0.086-0.13-0.064-0.388-0.451
		c-0.086-0.086-0.173-0.129-0.258-0.129c-0.087,0-0.161,0.043-0.226,0.129c-0.065,0.086-0.141,0.129-0.227,0.129
		c-0.044,0-0.106-0.021-0.192-0.064h-0.259l-0.193-0.193c-0.129,0.129-0.323,0.345-0.58,0.645
		C192.352,48.084,193.127,48.061,194.202,48.061z M188.525,48.577c-0.086-0.214-0.237-0.492-0.451-0.838
		c-0.215,0.087-0.366,0.28-0.453,0.58c0.13,0.302,0.324,0.452,0.581,0.452C188.288,48.771,188.396,48.707,188.525,48.577z
		 M190.331,47.932h-0.322c0.086,0.087,0.064,0.215-0.064,0.387L190.331,47.932z M182.011,49.029l-0.064-0.71
		c-0.086,0.087-0.216,0.193-0.388,0.322c-0.042,0-0.108-0.042-0.193-0.129C181.45,48.771,181.666,48.943,182.011,49.029z
		 M183.172,58.769l-0.193-0.194c-0.086,0.172-0.129,0.387-0.129,0.646l0.193-0.193c0,0.215-0.087,0.559-0.259,1.032l-0.386-0.13
		c0-0.43,0.031-1.074,0.097-1.934c0.063-0.861,0.097-1.506,0.097-1.937c0.13-0.129,0.17-0.387,0.13-0.773h-0.26
		c-0.216-0.258-0.397-0.914-0.548-1.968c-0.151-1.054-0.184-1.773-0.096-2.16c0.213-0.129,0.386-0.258,0.515-0.387
		c0.301,0.474,0.429,1.28,0.389,2.417c-0.044,1.142,0.02,1.904,0.192,2.291c0.171,0.388,0.258,0.56,0.258,0.516V58.769z
		 M179.108,57.026v-0.257h-0.129v0.257H179.108z M179.302,58.704v-0.581h-0.193v0.581H179.302z M179.561,59.155
		c-0.173-0.343-0.259-0.494-0.259-0.451l-0.13,0.451C179.302,59.114,179.43,59.114,179.561,59.155z M180.915,63.735l-0.259-4.837
		h-0.193l0.258,4.837H180.915z M180.334,65.927c-0.216-0.773-0.474-3.009-0.773-6.707c-0.217,0.042-0.323,0.173-0.323,0.387
		c0,1.979,0.259,4.15,0.774,6.515L180.334,65.927z M195.686,62.445v-0.193h-0.129v0.193H195.686z M186.009,63.218
		c0,0.216-0.086,0.367-0.256,0.451h-0.517l0.257,0.259C185.838,63.757,186.009,63.52,186.009,63.218z M179.43,64.767v-0.258h-0.128
		v0.258H179.43z M198.588,64.703l-0.065-0.065l-1.935,0.646v0.128L198.588,64.703z M200.071,64.767
		c-0.301,0.172-0.753,0.451-1.354,0.838C199.577,65.648,200.027,65.368,200.071,64.767z M179.561,65.605V64.96h-0.194v0.645H179.561
		z M196.46,65.476v-0.129h-0.26v0.129H196.46z M194.588,65.669v-0.193l-2.902-0.064v0.129L194.588,65.669z M179.623,66.056v-0.258
		h-0.127v0.258H179.623z M181.431,67.347c-0.087,0-0.236-0.044-0.452-0.129v0.451C181.108,67.626,181.258,67.519,181.431,67.347z
		 M200.394,67.282c-0.173-0.129-0.452-0.021-0.839,0.322c0,0.087-0.58,0.43-1.741,1.032c0.516,0.086,0.666,0.129,0.452,0.129
		c0.214,0,0.859-0.236,1.935-0.709c-0.044-0.215-0.022-0.365,0.063-0.452c-0.129,0-0.236-0.021-0.322-0.063
		C200.071,67.497,200.221,67.411,200.394,67.282z M180.979,68.573v-0.194h-0.129v0.194H180.979z M200.2,70.184l-0.065-0.063
		l-0.193,0.193l0.064,0.065L200.2,70.184z M193.104,73.667c-0.044,0-0.119,0.022-0.226,0.065c-0.106,0.041-0.183,0.064-0.226,0.064
		c-0.129,0-0.333-0.033-0.613-0.097c-0.279-0.064-0.484-0.098-0.611-0.098c-0.043,0-0.12,0.033-0.226,0.098
		c-0.108,0.063-0.185,0.097-0.228,0.097l-0.386-0.194c-0.345,0.087-0.797,0.28-1.356,0.581c0.131,0.043,0.302,0.15,0.518,0.322
		l-0.193,0.193c0.343-0.087,0.988-0.173,1.935-0.259C192.266,74.398,192.804,74.141,193.104,73.667z M189.364,74.765
		c-0.172-0.088-0.258-0.302-0.258-0.646c-0.216,0.171-0.302,0.344-0.259,0.517c0-0.088,0.021-0.151,0.064-0.195
		c0.043,0.086,0.065,0.215,0.065,0.388C189.063,74.786,189.192,74.765,189.364,74.765z M186.396,75.151
		c-0.602-0.129-1.031-0.193-1.289-0.193c0.129,0-0.022,0.064-0.452,0.193c-0.088-0.173-0.173-0.28-0.258-0.322
		c-0.13,0.129-0.473,0.344-1.033,0.645c-0.128,0.301-0.279,0.752-0.45,1.355h0.388c0.214-0.346,0.773-0.678,1.676-1.001
		C185.881,75.505,186.354,75.28,186.396,75.151z"/>
	<path fill="#010101" d="M226,59.542c-0.56,0.773-1.237,2.129-2.032,4.063s-1.538,3.311-2.225,4.127l0.128-1.031l-0.128-0.129
		l-1.29,2.645v-1.29c-0.56,1.504-1.57,3.719-3.032,6.644V74.7l0.71-0.259c-2.236,2.065-4.043,3.097-5.417,3.097
		c-1.249,0-2.731-0.623-4.452-1.869l-0.515-1.549l-0.71,2.191c-1.463-1.675-2.796-7.847-3.999-18.511
		c-1.119-9.889-1.678-19.198-1.678-27.928c0-5.935,0.323-9.697,0.968-11.288l-0.387-1.225l0.645-0.903l0.065-1.097l0.387-0.386
		l0.45-1.742l0.452,1.29l2.645,0.774l-0.258-1.032l0.646-0.516v1.161l1.418,1.032l0.26-0.323l2.127,0.775l0.259-0.452
		c0.646,1.635,1.912,3.547,3.806,5.74c2.192,2.538,3.59,4.344,4.191,5.419c-0.517,1.332-1.141,3.524-1.87,6.578
		c-0.731,2.881-1.397,5.073-1.999,6.579l0.773-3.226c-1.032,0.86-1.698,2.151-1.999,3.869c3.312,0.088,6.492,1.765,9.546,5.032
		c3.053,3.268,4.58,6.557,4.58,9.867c0,0.475-0.066,0.947-0.193,1.42C226.795,57.607,226.172,58.38,226,59.542z M206.907,40.386
		c0.516,0.473,1.182,0.71,2.001,0.71c0.815,0,1.525-0.215,2.128-0.646c0.215-0.172,0.623-1.128,1.226-2.869
		c0.602-1.742,0.903-2.806,0.903-3.193c0-1.419-0.742-2.848-2.227-4.289c-1.483-1.44-2.956-2.161-4.418-2.161
		c-0.645,0-1.031,0.408-1.16,1.227v1.935c0.041,1.333,0.106,2.215,0.192,2.645C206.457,37.225,206.907,39.441,206.907,40.386z
		 M216.002,32.581c-0.258,0.561-0.602,1.42-1.031,2.58c-0.258,0.947-0.731,2.237-1.42,3.87c-0.603,0.775-0.903,1.247-0.903,1.419
		c0.301,0,0.561,0.066,0.774,0.193C213.895,40.042,214.754,37.355,216.002,32.581z M221.098,48.965
		c0.215,1.203,0.322,2.407,0.322,3.61c0,0.732-0.044,1.463-0.129,2.193c0.172-0.945,0.258-1.849,0.258-2.709
		C221.549,50.986,221.398,49.954,221.098,48.965z M222.129,50.641c-0.472,5.289-1.246,9.094-2.321,11.416l-0.129-0.708l-0.387,0.451
		c0.087-0.344,0.106-0.817,0.064-1.419l-0.259,0.321c0.086-0.557,0.15-1.247,0.194-2.063c-0.475-0.688-1.753-1.654-3.838-2.902
		c-2.087-1.247-3.516-1.871-4.29-1.871c-0.516,0-1.01,0.345-1.482,1.031c-0.087,0.819-0.366,1.228-0.84,1.228
		c-0.431,0-0.602-0.408-0.516-1.228l-0.322-0.191l-0.193,0.191l0.26,0.452c-0.131,0.388-0.195,0.926-0.195,1.613
		c0,1.204,0.195,3.225,0.58,6.063l0.517,0.58l-0.321,0.322l0.129,0.903c0.472,0.215,1.245,0.452,2.321,0.709
		c-0.087-0.129-0.129-0.236-0.129-0.322c0-0.172,0.192-0.258,0.58-0.258c0.645,0,1.59,0.193,2.838,0.58l1.806-0.773l0.129,0.129
		c0.345-0.517,0.926-1.247,1.742-2.192l0.064,0.451c-0.258,0.603-0.753,1.419-1.483,2.45l0.387,0.193l0.517-0.258l0.192,0.387
		c0.216-0.387,0.517-0.967,0.903-1.741l0.193,0.064l0.323,0.903l-0.58,1.936l0.322-0.259l0.128,0.322l-0.193,0.065l0.258,0.192
		c0.473-1.247,0.882-2.558,1.226-3.934l-0.387,0.192c0-1.289,0.387-3.182,1.161-5.674c0.773-2.495,1.161-4.388,1.161-5.677
		C222.259,51.76,222.216,51.202,222.129,50.641z M205.037,55.608v-0.516h-0.192v0.516H205.037z M205.101,56.51V55.8h-0.129v0.71
		H205.101z M205.167,56.898V56.51h-0.13v0.388H205.167z M205.36,58.317V57.8h-0.13v0.517H205.36z M205.553,59.865l-0.063-1.354
		h-0.194l0.13,1.354H205.553z M220.065,59.284h-0.129l-0.129,0.581h0.193L220.065,59.284z M206.392,65.669
		c-0.129-0.603-0.279-1.504-0.451-2.708l-0.388-2.71C205.553,62.403,205.832,64.209,206.392,65.669z M220.518,65.735
		c-0.174,0.042-0.355,0.106-0.549,0.192c-0.193,0.087-0.29,0.26-0.29,0.518v0.451l0.258-0.065v0.129
		c-0.043,0.216-0.173,0.537-0.388,0.968c-0.085,0.129-0.236,0.344-0.451,0.646c-0.129,0.43-0.344,1.117-0.645,2.063
		c0,0.042-0.119,0.247-0.354,0.612c-0.236,0.365-0.355,0.591-0.355,0.678v0.387c0.301-0.172,0.84-1.054,1.613-2.644
		c0.214-0.388,0.473-0.926,0.774-1.613v-0.903C220.26,66.852,220.388,66.379,220.518,65.735z M222.58,67.089
		c0,0.258-0.106,0.602-0.321,1.031v-0.388L222.58,67.089z M222.968,68.895c-0.087,0-0.193-0.021-0.321-0.064
		c0-0.216,0.042-0.322,0.128-0.322C222.774,68.636,222.84,68.765,222.968,68.895z M221.549,71.023h-0.322
		c0.042-0.258,0.021-0.494-0.064-0.709c-0.474,0.473-0.709,0.924-0.709,1.354c0,0.086,0.021,0.151,0.064,0.194
		c0.171-0.129,0.3-0.302,0.387-0.517c0,0.086-0.108,0.365-0.322,0.84c-0.216,0.472-0.322,0.814-0.322,1.031
		c0,0.301,0.106,0.537,0.322,0.709c-0.346,0-0.494,0.236-0.451,0.711l0.064,1.032c-0.13,0.3-0.28,0.751-0.452,1.354
		c-0.129,0.042-0.322,0.085-0.58,0.129c-0.258-0.773-0.387-1.312-0.387-1.612c0-0.216,0.095-0.494,0.29-0.839
		c0.193-0.346,0.29-0.603,0.29-0.774v-0.58c0.171-0.258,0.387-0.624,0.645-1.097c0.13-0.731,0.494-1.806,1.097-3.225
		c0,0.215,0.042,0.407,0.129,0.581c0.129-0.088,0.259-0.281,0.388-0.581h0.515C222.129,69.454,221.937,70.121,221.549,71.023z
		 M208.713,73.861V73.41c-0.344,0-0.559-0.172-0.643-0.516c-0.088,0-0.153,0.193-0.195,0.58c0.086,0.129,0.195,0.3,0.323,0.516
		C208.369,73.903,208.541,73.861,208.713,73.861z"/>
	<path fill="#010101" d="M258.572,46.062l-0.517,0.967h0.258l-0.516,5.998l0.452,0.839l-0.516,1.291l-0.194-1.613
		c-0.431,0.645-0.817,2.087-1.161,4.322l0.259,0.387l0.58-1.612c-0.302,1.075-0.409,2.086-0.322,3.031
		c-0.475,0.604-1.527,2.3-3.16,5.096c0.042,0.172,0.063,0.43,0.063,0.773c-0.56,1.074-1.957,3.14-4.192,6.192
		c-1.204,1.548-1.894,2.923-2.063,4.128l-2.064,1.032l0.322,0.064c-0.086,0-0.172,0.042-0.257,0.129
		c0.171,0.043,0.364,0.149,0.58,0.322l-0.388,0.129l-1.16,0.129c-2.752,0.301-5.439-0.732-8.063-3.096
		c-2.408-2.151-4.042-4.622-4.902-7.418c-1.591-5.245-2.386-12.771-2.386-22.575c0-6.837,0.58-12.619,1.741-17.351
		c1.936-7.869,5.268-11.868,9.997-11.996l1.033-1.871l0.322-0.129c1.892,0.861,3.396,2.086,4.516,3.677v0.387l-0.451-0.258
		l3.224,4.967l0.581-0.387c0.129,0.817,0.235,1.376,0.322,1.677c0.215,0.689,0.517,1.162,0.902,1.419l0.518-0.322
		c0.472,2.237,1.246,4.279,2.321,6.128l0.45-0.711l0.26,0.13l0.387,1.031l-0.387,1.161l0.257,0.774l0.517,0.064l0.258,0.774
		l0.194-0.388c0.128,2.451,0.686,4.107,1.675,4.966c-0.386,0.431-0.58,0.947-0.58,1.549c0,0.946,0.345,1.913,1.032,2.902
		c-0.171,0.56-0.258,1.075-0.258,1.549C258.056,45.008,258.228,45.589,258.572,46.062z M241.222,17.295
		c-0.129,0-0.259-0.065-0.387-0.193c-0.043,0.043-0.302,0.193-0.775,0.451c-0.257,0.129-0.386,0.366-0.386,0.71
		c0,0.301,0.086,0.752,0.257,1.354c0.172,0.602,0.26,1.054,0.26,1.354c0,0.258-0.065,0.431-0.193,0.516
		c0.128,0.431,0.148,0.71,0.063,0.839c-0.042-0.128-0.129-0.322-0.257-0.58c-0.086,0-0.194,0.193-0.323,0.58l-0.13-0.322
		c-0.084,0.172-0.235,0.366-0.45,0.58c-0.129,0.431-0.193,1.398-0.193,2.903l1.161-0.967c-0.216-0.172-0.279-0.452-0.193-0.839
		c0.129,0.043,0.257,0.152,0.386,0.322l0.194-0.193l-0.063-0.129h0.257c0.043-0.129,0.086-0.322,0.13-0.581
		c-0.044-0.258-0.087-0.687-0.13-1.29l0.13-1.097l-0.13-0.257C240.963,20.197,241.222,19.144,241.222,17.295z M240.512,19.875
		c0-0.603,0.15-1.268,0.451-2v0.58c0,0.129-0.074,0.367-0.226,0.71C240.587,19.51,240.512,19.746,240.512,19.875z M235.675,22.39
		v-0.451h-0.516l0.064,0.967C235.309,22.777,235.459,22.605,235.675,22.39z M250.703,44.578c0.042-0.17-0.173-1.031-0.646-2.579
		c-0.345,0-0.516-0.065-0.516-0.194c0-0.042,0.021-0.063,0.064-0.063c0.087-0.043,0.194-0.043,0.322,0
		c-0.517-1.892-1.635-4.235-3.354-7.031c-0.56-0.816-2.021-3.01-4.387-6.578c-1.935,2.063-3.333,6.127-4.192,12.189
		c0,0.129-0.387,4.645-1.16,13.545c-0.173-1.762-0.258-3.483-0.258-5.159c0-6.794,1.245-12.771,3.741-17.932
		c0.902-1.848,1.354-2.944,1.354-3.29c0-0.557-0.258-1.053-0.773-1.482c-1.634,1.506-2.667,3.72-3.097,6.645l-0.516,0.579
		l-0.258,2.323l-0.517,0.708c0.172,0.258,0.236,0.537,0.193,0.839c-0.087,0.345-0.302,0.517-0.644,0.517l-0.066-0.904
		c-0.473,1.075-0.708,2.173-0.708,3.29c0,0.99,0.171,1.871,0.516,2.646l-0.389,0.774l0.195,0.257
		c0.129,2.28,0.235,4.579,0.322,6.902c0.215,2.665,0.666,4.901,1.354,6.708c0.903,2.449,2.214,3.913,3.935,4.386l1.354,0.386
		c0.43,0.174,0.795,0.431,1.097,0.775c0.73-0.688,1.871-1.655,3.419-2.903l0.386-1.097l0.129,0.129
		c2.581-3.354,3.871-6.771,3.871-10.255C251.478,47.245,251.219,45.868,250.703,44.578z M254.701,29.486
		c-0.257-0.345-0.709-0.84-1.354-1.483v-0.259c1.033,0.345,1.549,0.732,1.549,1.162C254.896,29.078,254.832,29.27,254.701,29.486z
		 M256.121,32.71c-0.301-0.474-0.452-0.773-0.452-0.902c0-0.301,0.129-0.451,0.388-0.451c0.3,0,0.43,0.215,0.388,0.644
		C256.356,32.173,256.25,32.41,256.121,32.71z M232.837,35.226c-0.043,0.172-0.13,0.408-0.259,0.709l0.129,2.968
		c0-0.344,0.064-0.622,0.194-0.839c-0.044,0-0.064-0.022-0.064-0.065c0.042-0.129,0.106-0.3,0.193-0.516
		c0.042-0.215,0.042-0.602,0-1.16C232.986,35.634,232.923,35.269,232.837,35.226z M250.058,44.642h-0.387v-0.128h0.387V44.642z
		 M232.644,53.415l-0.065-0.192l-0.129,0.063l0.129,0.129H232.644z M232.771,53.995v-0.321h-0.128v0.321H232.771z M250.96,60.059
		l-0.063-0.065l-0.194,0.193l0.064,0.064L250.96,60.059z M245.994,61.542v-0.192h-0.128v0.192H245.994z M247.606,62.38
		c-0.086-0.129-0.215-0.193-0.387-0.193c-0.257,0-0.559,0.237-0.903,0.709C246.747,63.026,247.176,62.854,247.606,62.38z
		 M245.736,63.347h-0.129l-0.063,0.194l0.063,0.064L245.736,63.347z M248.316,64.574c-0.56,0.216-0.989,0.537-1.291,0.967
		c0.044,0,0.13,0.022,0.26,0.064c0.129,0.043,0.235,0.064,0.321,0.064c0.474,0,0.71-0.236,0.71-0.709V64.574z M247.865,68.895
		c0-0.044-0.065-0.108-0.192-0.193c-0.044,0.042-0.087,0.105-0.13,0.193H247.865z M249.671,70.056l-0.967,0.967
		c-0.087-0.087-0.216-0.192-0.388-0.321c0.388-0.388,0.624-0.581,0.71-0.581c0.043,0,0.043,0.042,0,0.129
		c-0.044,0.042-0.023,0.064,0.064,0.064c0.042,0,0.075-0.044,0.096-0.13c0.021-0.086,0.075-0.128,0.162-0.128H249.671z"/>
	<path fill="#010101" d="M296.563,68.444l-0.323,0.516l-0.774-0.323l-1.483,2.065l1.291,1.29l-1.548,0.516l-0.388,2.321
		l-0.387,0.064l0.774,0.452c-0.689,0.473-2.773,0.709-6.257,0.709c-7.009,0-14.277-0.495-21.801-1.483l-0.517,0.451l-1.032-0.322
		l-1.741-2.451c-0.044-0.43-0.215-1.161-0.516-2.192c-0.302-1.032-0.452-1.829-0.452-2.387c0-0.388,0.064-0.773,0.193-1.162
		l-0.839-0.451l0.259-0.451l-1.096-3.29l1.869-1.934l-0.193-0.13l0.774-0.192c0-3.396-0.344-8.492-1.032-15.286
		c-0.688-6.794-1.032-11.891-1.032-15.287c0-3.268,0.278-6.429,0.84-9.482c0.814-4.515,2.085-6.773,3.805-6.773
		c1.203,0,1.805,0.538,1.805,1.613c0,1.119-0.43,2.322-1.288,3.611l0.322,3.097l0.322,0.322c-0.86,1.119-1.354,2.603-1.483,4.451
		c-0.043,0.345-0.109,1.978-0.193,4.902c-0.044-2.623,0.063-5.999,0.322-10.126c-1.032,1.849-1.549,5.546-1.549,11.093
		c0,3.483,0.216,8.021,0.646,13.61c0.516,6.795,0.815,11.31,0.902,13.545c1.29,0.645,3.935,1.054,7.933,1.226
		c5.977,0.258,9.719,0.474,11.224,0.645c4.472,0.516,7.998,1.505,10.578,2.967C294.885,65.821,295.572,67.239,296.563,68.444z
		 M263.667,17.102l0.194,0.128c0.257-0.128,0.451-0.171,0.58-0.128c0.214,0.128,0.364,0.193,0.452,0.193
		c0.172,0,0.407-0.279,0.709-0.838c0.3-0.558,0.451-0.945,0.451-1.161c0-0.945-0.302-1.419-0.903-1.419
		c-0.989,0-1.483,0.645-1.483,1.935V17.102z M268.956,20.971c0,0.129,0.021,0.333,0.064,0.612c0.042,0.281,0.063,0.484,0.063,0.614
		c-0.043-0.043-0.107-0.215-0.192-0.517c-0.216,0.732-0.409,1.462-0.58,2.193c0-0.344,0.031-0.828,0.097-1.451
		c0.064-0.623,0.096-1.107,0.096-1.452c0-0.042-0.044-0.472-0.128-1.29c-0.043-0.516-0.043-0.945,0-1.291
		c0.084-0.472,0.258-0.859,0.516-1.161c0.387,0.215,0.58,0.431,0.58,0.645c0-0.171-0.107,0.087-0.321,0.774
		C269.278,19.208,269.213,19.982,268.956,20.971z M271.277,26.002c0.043-1.032,0.021-2.021-0.063-2.968l-0.13-1.418l-0.193-2.645
		c0.43,0.086,0.667,0.688,0.709,1.806c-0.042-0.988-0.063-0.258-0.063,2.193C271.536,23.315,271.449,24.325,271.277,26.002z
		 M261.99,23.68c-0.129,1.506-0.151,3.505-0.065,5.999l0.194,5.998l-0.129-0.193c0.299,1.678,0.601,4.214,0.902,7.61l-0.064-0.192
		c0.215,3.439,0.322,6.837,0.322,10.189c0,2.107-0.043,4.194-0.129,6.258l0.26,0.451l0.644-0.517
		c-0.043-0.472-0.022-1.129,0.065-1.967c0.085-0.838,0.128-1.407,0.128-1.709c0-3.097-0.377-7.75-1.129-13.964
		s-1.128-10.869-1.128-13.965C261.861,26.304,261.904,24.971,261.99,23.68z M267.859,52.125l-0.063-0.194l-0.323,0.322
		c0-0.945-0.193-2.322-0.58-4.128l-0.131,0.451c-0.041-0.258-0.128-0.902-0.256-1.934l0.387-0.13c0-0.172-0.108-0.44-0.323-0.806
		c-0.216-0.365-0.322-0.655-0.322-0.872l0.259,0.13c0.086-1.161,0.02-1.999-0.195-2.516l-0.127,1.226
		c-0.388-2.322-0.581-4.88-0.581-7.675c0-2.021,0.214-5.935,0.645-11.739c0.387,0.128,0.73,0.344,1.032,0.645l0.451-0.194
		l-0.193,0.451c0.172,0.775,0.344,1.399,0.516,1.871l0.194,0.129v-0.321c-0.088,0.773,0,1.334,0.257,1.676l0.194-1.935
		c0.258,0.731,0.386,1.549,0.386,2.451c0,0.773-0.14,1.935-0.419,3.483c-0.279,1.548-0.418,2.709-0.418,3.483v12.19
		c0,0.386-0.075,1.021-0.226,1.902C267.87,50.975,267.815,51.653,267.859,52.125z M267.796,31.872h-0.517L267.344,32
		c-0.043,0.345-0.064,0.817-0.064,1.42c0,0.086,0.032,0.204,0.097,0.354s0.097,0.247,0.097,0.29c0,0.042-0.064,0.129-0.193,0.258
		c0,0.129,0.064,0.452,0.193,0.968c0-0.086,0.054-0.247,0.161-0.484c0.105-0.235,0.162-0.419,0.162-0.548v-0.903
		c-0.217,0-0.346-0.042-0.388-0.129c0.429-0.387,0.623-0.623,0.58-0.709C267.859,32.129,267.796,31.916,267.796,31.872z
		 M262.441,43.288v-0.386h-0.129v0.386H262.441z M266.634,45.611v-0.258h-0.128v0.258H266.634z M266.634,49.158l-0.128,0.322h-0.13
		l0.13-0.322H266.634z M262.958,49.48v-0.258h-0.193v0.258H262.958z M266.893,57.22c-0.088-1.763-0.193-4.277-0.323-7.547
		C266.784,51.609,266.893,54.125,266.893,57.22z M263.021,52.253V51.48h-0.193v0.773H263.021z M263.021,53.351v-0.71h-0.193v0.71
		H263.021z M266.569,58.189c-0.129,0-0.237-0.043-0.322-0.131l0.259-0.192C266.506,57.952,266.525,58.058,266.569,58.189z
		 M271.343,60.897v-0.322h-0.387c-0.174,0.043-0.301,0.064-0.388,0.064c-0.128,0-0.302-0.033-0.516-0.098
		c-0.216-0.063-0.388-0.097-0.516-0.097c-0.087,0-0.194,0.087-0.324,0.258c0.216,0.044,0.518,0.13,0.904,0.258
		c-0.086-0.042-0.129-0.084-0.129-0.128c0.043-0.086,0.15-0.13,0.322-0.13S270.826,60.768,271.343,60.897z M269.084,60.639
		l-0.645-0.129c-0.128,0-0.235,0.192-0.322,0.58c0.13,0,0.235,0.021,0.322,0.064C268.526,60.983,268.74,60.811,269.084,60.639z
		 M271.987,60.639c-0.388,0-0.559,0.087-0.516,0.258h0.322L271.987,60.639z M290.242,61.864l-0.904-0.258
		c0.301,0.387,0.536,0.581,0.709,0.581C290.219,62.187,290.283,62.081,290.242,61.864z M268.634,67.604l-0.065-0.451
		c0.216,0,0.193,0-0.064,0c-0.257-0.044-0.623-0.063-1.096-0.063h-1.161c-0.388,0-0.86-0.044-1.42-0.13
		c-0.515-0.086-1.01-0.043-1.482,0.13c1.247,0.258,2.063,0.388,2.451,0.388C267.128,67.477,268.074,67.519,268.634,67.604z
		 M291.402,67.024c0.084,0.258,0.193,0.387,0.322,0.387c0.043-0.042,0.063-0.086,0.063-0.129
		C291.788,67.153,291.659,67.067,291.402,67.024z M291.079,67.218l-0.387-0.194l-0.064,0.129l0.451,0.194V67.218z M288.307,68.121
		c-0.991-0.644-2.258-0.945-3.807-0.902l-3.935,0.063l-0.193,0.129l-0.193-0.192l-3.481,0.386l-0.26-0.193l-1.031,0.193
		l-0.129-0.193c-0.518,0.216-1.571,0.259-3.161,0.13c-1.334-0.088-2.451-0.193-3.354-0.322c0.301,0.429,1.851,0.709,4.645,0.838
		l5.288,0.258l0.065,0.13c0.473,0,1.139-0.044,2.001-0.13c0.299-0.215,0.814-0.452,1.546-0.71c0.086-0.044,1.162,0.065,3.226,0.323
		l-0.257,0.065l0.966,0.258l0.194-0.194C286.864,68.056,287.489,68.078,288.307,68.121z M292.37,68.056
		c-0.044,0.171-0.13,0.388-0.259,0.646c-0.215-0.431-0.946-0.86-2.192-1.291c0.171,0.13,0.408,0.301,0.709,0.517l-0.129,0.129
		c-0.257-0.086-0.668-0.129-1.226-0.129c0.43,0.172,1.01,0.473,1.742,0.903c-0.044,0.043-0.13,0.086-0.259,0.129
		c-0.129-0.302-0.452-0.451-0.967-0.451c0.041,0.042-0.129,0.149-0.517,0.322c0.129,0,0.236,0.043,0.322,0.129l0.13-0.258
		c0.128,0.042,0.257,0.063,0.387,0.063c0,0.086-0.022,0.151-0.065,0.194h-0.128c0.558,0.258,0.945,0.387,1.16,0.387
		c0.946,0,1.419-0.301,1.419-0.902C292.498,68.573,292.455,68.444,292.37,68.056z M268.053,67.993
		c-0.087,0.041-0.257,0.106-0.516,0.192l0.259,0.129C267.966,68.227,268.053,68.121,268.053,67.993z M278.18,68.573v-0.194h-0.58
		v0.194H278.18z M277.019,68.444c-0.86-0.044-2.345-0.065-4.45-0.065c0.215,0.086,0.493,0.13,0.838,0.13
		c0.043,0,0.107,0.03,0.193,0.097c0.086,0.064,0.15,0.097,0.194,0.097h3.096L277.019,68.444z M289.21,68.444h-0.259l0.129,0.129
		c-0.086,0.042-0.108,0.107-0.064,0.192C289.058,68.68,289.123,68.573,289.21,68.444z M277.534,68.636v-0.128l-0.451-0.064v0.129
		L277.534,68.636z M292.691,69.153c-0.043-0.087-0.107-0.129-0.193-0.129c-0.087,0-0.172,0.042-0.258,0.129H292.691z
		 M292.048,69.863c-0.088-0.087-0.217-0.13-0.389-0.13v0.451L292.048,69.863z M291.402,70.959c0.043,0,0.129,0.042,0.257,0.128
		c0.129,0.086,0.237,0.129,0.323,0.129c0.087,0,0.129-0.063,0.129-0.193c0.042-0.087,0.021-0.15-0.063-0.192
		C292.133,70.873,291.918,70.916,291.402,70.959z M294.305,71.667c0-0.256-0.087-0.473-0.258-0.645h-0.322
		c0.084,0.172,0.107,0.389,0.063,0.645H294.305z M292.95,72.055c-0.603-0.087-1.119-0.15-1.548-0.193
		c0.472,0.258,0.838,0.387,1.096,0.387C292.713,72.249,292.862,72.185,292.95,72.055z M292.95,73.023
		c-0.044-0.086-0.088-0.215-0.129-0.387c-0.13,0.043-0.366,0.105-0.71,0.193C292.282,72.915,292.563,72.98,292.95,73.023z
		 M285.338,72.894v-0.129l-1.547,0.064v0.193L285.338,72.894z M289.726,73.41c-1.936-0.387-2.861-0.58-2.774-0.58h-1.483
		C286.759,72.958,288.177,73.152,289.726,73.41z M283.662,73.023V72.83h-0.258v0.193H283.662z M283.209,73.023V72.83h-0.321v0.193
		H283.209z M281.727,72.958l-0.063-0.129l-0.26,0.129v0.129L281.727,72.958z M281.275,73.087v-0.129h-0.258v0.129H281.275z
		 M280.888,73.087v-0.129h-0.516v0.129H280.888z M279.922,73.087v-0.129h-0.195v0.129H279.922z M290.886,73.861v-0.193l-1.16-0.258
		v0.13L290.886,73.861z M279.922,74.506h-0.388v-0.192h0.388V74.506z M266.247,76.054c-0.217,0.301-0.279,0.622-0.193,0.968
		c-0.129-0.088-0.194-0.193-0.194-0.322h-0.322c-0.129,0.042-0.216,0.063-0.258,0.063c-0.258,0-0.581-0.408-0.967-1.225l0.064-0.451
		l1.482,0.322C265.859,75.709,265.989,75.926,266.247,76.054z M265.859,77.151c0,0.172-0.107,0.364-0.322,0.58
		c-0.087-0.129-0.216-0.279-0.387-0.451C265.321,77.366,265.559,77.323,265.859,77.151z"/>
</g>
</svg>
